                              1 ;--------------------------------------------------------
                              2 ; File Created by SDCC : FreeWare ANSI-C Compiler
                              3 ; Version 2.3.1 Wed Dec 24 09:20:10 2014
                              4 
                              5 ;--------------------------------------------------------
                              6 	.module lcc59290
                              7 	
                              8 ;--------------------------------------------------------
                              9 ; Public variables in this module
                             10 ;--------------------------------------------------------
                             11 	.globl _optionScreen
                             12 ;--------------------------------------------------------
                             13 ; special function registers
                             14 ;--------------------------------------------------------
                             15 ;--------------------------------------------------------
                             16 ; special function bits 
                             17 ;--------------------------------------------------------
                             18 ;--------------------------------------------------------
                             19 ; internal ram data
                             20 ;--------------------------------------------------------
                             21 	.area _DATA
                             22 ;--------------------------------------------------------
                             23 ; overlayable items in internal ram 
                             24 ;--------------------------------------------------------
                             25 	.area _OVERLAY
                             26 ;--------------------------------------------------------
                             27 ; indirectly addressable internal ram data
                             28 ;--------------------------------------------------------
                             29 	.area _ISEG
                             30 ;--------------------------------------------------------
                             31 ; bit data
                             32 ;--------------------------------------------------------
                             33 	.area _BSEG
                             34 ;--------------------------------------------------------
                             35 ; external ram data
                             36 ;--------------------------------------------------------
                             37 	.area _XSEG
                             38 ;--------------------------------------------------------
                             39 ; global & static initialisations
                             40 ;--------------------------------------------------------
                             41 	.area _GSINIT
                             42 	.area _GSFINAL
                             43 	.area _GSINIT
                             44 ;--------------------------------------------------------
                             45 ; Home
                             46 ;--------------------------------------------------------
                             47 	.area _HOME
                             48 	.area _CODE
                             49 ;--------------------------------------------------------
                             50 ; code
                             51 ;--------------------------------------------------------
                             52 	.area _CODE
                             53 	.area _CODE
   0000                      54 _optionScreen:
   0000 00                   55 	.db #0x00
   0001 00                   56 	.db #0x00
   0002 00                   57 	.db #0x00
   0003 00                   58 	.db #0x00
   0004 00                   59 	.db #0x00
   0005 00                   60 	.db #0x00
   0006 00                   61 	.db #0x00
   0007 00                   62 	.db #0x00
   0008 00                   63 	.db #0x00
   0009 00                   64 	.db #0x00
   000A 00                   65 	.db #0x00
   000B 00                   66 	.db #0x00
   000C 5A                   67 	.db #0x5A
   000D 5A                   68 	.db #0x5A
   000E 00                   69 	.db #0x00
   000F 00                   70 	.db #0x00
   0010 00                   71 	.db #0x00
   0011 00                   72 	.db #0x00
   0012 00                   73 	.db #0x00
   0013 00                   74 	.db #0x00
   0014 00                   75 	.db #0x00
   0015 00                   76 	.db #0x00
   0016 00                   77 	.db #0x00
   0017 00                   78 	.db #0x00
   0018 00                   79 	.db #0x00
   0019 00                   80 	.db #0x00
   001A 00                   81 	.db #0x00
   001B 00                   82 	.db #0x00
   001C 00                   83 	.db #0x00
   001D 00                   84 	.db #0x00
   001E 00                   85 	.db #0x00
   001F 5B                   86 	.db #0x5B
   0020 34                   87 	.db #0x34
   0021 36                   88 	.db #0x36
   0022 00                   89 	.db #0x00
   0023 00                   90 	.db #0x00
   0024 00                   91 	.db #0x00
   0025 00                   92 	.db #0x00
   0026 00                   93 	.db #0x00
   0027 00                   94 	.db #0x00
   0028 00                   95 	.db #0x00
   0029 6D                   96 	.db #0x6D
   002A 61                   97 	.db #0x61
   002B 78                   98 	.db #0x78
   002C 00                   99 	.db #0x00
   002D 74                  100 	.db #0x74
   002E 69                  101 	.db #0x69
   002F 6C                  102 	.db #0x6C
   0030 65                  103 	.db #0x65
   0031 00                  104 	.db #0x00
   0032 7B                  105 	.db #0x7B
   0033 5B                  106 	.db #0x5B
   0034 35                  107 	.db #0x35
   0035 37                  108 	.db #0x37
   0036 00                  109 	.db #0x00
   0037 00                  110 	.db #0x00
   0038 00                  111 	.db #0x00
   0039 00                  112 	.db #0x00
   003A 00                  113 	.db #0x00
   003B 00                  114 	.db #0x00
   003C 00                  115 	.db #0x00
   003D 00                  116 	.db #0x00
   003E 00                  117 	.db #0x00
   003F 00                  118 	.db #0x00
   0040 00                  119 	.db #0x00
   0041 00                  120 	.db #0x00
   0042 00                  121 	.db #0x00
   0043 00                  122 	.db #0x00
   0044 00                  123 	.db #0x00
   0045 00                  124 	.db #0x00
   0046 00                  125 	.db #0x00
   0047 5B                  126 	.db #0x5B
   0048 38                  127 	.db #0x38
   0049 3A                  128 	.db #0x3A
   004A 00                  129 	.db #0x00
   004B 00                  130 	.db #0x00
   004C 00                  131 	.db #0x00
   004D 00                  132 	.db #0x00
   004E 00                  133 	.db #0x00
   004F 00                  134 	.db #0x00
   0050 00                  135 	.db #0x00
   0051 00                  136 	.db #0x00
   0052 00                  137 	.db #0x00
   0053 00                  138 	.db #0x00
   0054 00                  139 	.db #0x00
   0055 00                  140 	.db #0x00
   0056 00                  141 	.db #0x00
   0057 00                  142 	.db #0x00
   0058 00                  143 	.db #0x00
   0059 00                  144 	.db #0x00
   005A 00                  145 	.db #0x00
   005B 5B                  146 	.db #0x5B
   005C 39                  147 	.db #0x39
   005D 3B                  148 	.db #0x3B
   005E 00                  149 	.db #0x00
   005F 00                  150 	.db #0x00
   0060 00                  151 	.db #0x00
   0061 00                  152 	.db #0x00
   0062 00                  153 	.db #0x00
   0063 00                  154 	.db #0x00
   0064 00                  155 	.db #0x00
   0065 00                  156 	.db #0x00
   0066 00                  157 	.db #0x00
   0067 00                  158 	.db #0x00
   0068 00                  159 	.db #0x00
   0069 00                  160 	.db #0x00
   006A 00                  161 	.db #0x00
   006B 00                  162 	.db #0x00
   006C 00                  163 	.db #0x00
   006D 00                  164 	.db #0x00
   006E 00                  165 	.db #0x00
   006F 5B                  166 	.db #0x5B
   0070 3C                  167 	.db #0x3C
   0071 3E                  168 	.db #0x3E
   0072 00                  169 	.db #0x00
   0073 00                  170 	.db #0x00
   0074 00                  171 	.db #0x00
   0075 00                  172 	.db #0x00
   0076 00                  173 	.db #0x00
   0077 00                  174 	.db #0x00
   0078 00                  175 	.db #0x00
   0079 00                  176 	.db #0x00
   007A 00                  177 	.db #0x00
   007B 00                  178 	.db #0x00
   007C 00                  179 	.db #0x00
   007D 00                  180 	.db #0x00
   007E 00                  181 	.db #0x00
   007F 00                  182 	.db #0x00
   0080 00                  183 	.db #0x00
   0081 00                  184 	.db #0x00
   0082 00                  185 	.db #0x00
   0083 5B                  186 	.db #0x5B
   0084 3D                  187 	.db #0x3D
   0085 3F                  188 	.db #0x3F
   0086 00                  189 	.db #0x00
   0087 00                  190 	.db #0x00
   0088 00                  191 	.db #0x00
   0089 00                  192 	.db #0x00
   008A 00                  193 	.db #0x00
   008B 00                  194 	.db #0x00
   008C 00                  195 	.db #0x00
   008D 00                  196 	.db #0x00
   008E 00                  197 	.db #0x00
   008F 00                  198 	.db #0x00
   0090 00                  199 	.db #0x00
   0091 00                  200 	.db #0x00
   0092 00                  201 	.db #0x00
   0093 00                  202 	.db #0x00
   0094 00                  203 	.db #0x00
   0095 00                  204 	.db #0x00
   0096 00                  205 	.db #0x00
   0097 5B                  206 	.db #0x5B
   0098 40                  207 	.db #0x40
   0099 42                  208 	.db #0x42
   009A 00                  209 	.db #0x00
   009B 00                  210 	.db #0x00
   009C 00                  211 	.db #0x00
   009D 00                  212 	.db #0x00
   009E 00                  213 	.db #0x00
   009F 00                  214 	.db #0x00
   00A0 00                  215 	.db #0x00
   00A1 00                  216 	.db #0x00
   00A2 00                  217 	.db #0x00
   00A3 00                  218 	.db #0x00
   00A4 00                  219 	.db #0x00
   00A5 00                  220 	.db #0x00
   00A6 00                  221 	.db #0x00
   00A7 00                  222 	.db #0x00
   00A8 00                  223 	.db #0x00
   00A9 00                  224 	.db #0x00
   00AA 00                  225 	.db #0x00
   00AB 5B                  226 	.db #0x5B
   00AC 41                  227 	.db #0x41
   00AD 43                  228 	.db #0x43
   00AE 00                  229 	.db #0x00
   00AF 00                  230 	.db #0x00
   00B0 00                  231 	.db #0x00
   00B1 00                  232 	.db #0x00
   00B2 00                  233 	.db #0x00
   00B3 00                  234 	.db #0x00
   00B4 00                  235 	.db #0x00
   00B5 00                  236 	.db #0x00
   00B6 00                  237 	.db #0x00
   00B7 00                  238 	.db #0x00
   00B8 00                  239 	.db #0x00
   00B9 00                  240 	.db #0x00
   00BA 00                  241 	.db #0x00
   00BB 00                  242 	.db #0x00
   00BC 00                  243 	.db #0x00
   00BD 00                  244 	.db #0x00
   00BE 00                  245 	.db #0x00
   00BF 5B                  246 	.db #0x5B
   00C0 44                  247 	.db #0x44
   00C1 46                  248 	.db #0x46
   00C2 00                  249 	.db #0x00
   00C3 00                  250 	.db #0x00
   00C4 00                  251 	.db #0x00
   00C5 00                  252 	.db #0x00
   00C6 00                  253 	.db #0x00
   00C7 00                  254 	.db #0x00
   00C8 00                  255 	.db #0x00
   00C9 00                  256 	.db #0x00
   00CA 00                  257 	.db #0x00
   00CB 00                  258 	.db #0x00
   00CC 00                  259 	.db #0x00
   00CD 00                  260 	.db #0x00
   00CE 00                  261 	.db #0x00
   00CF 00                  262 	.db #0x00
   00D0 00                  263 	.db #0x00
   00D1 00                  264 	.db #0x00
   00D2 00                  265 	.db #0x00
   00D3 5B                  266 	.db #0x5B
   00D4 45                  267 	.db #0x45
   00D5 47                  268 	.db #0x47
   00D6 00                  269 	.db #0x00
   00D7 00                  270 	.db #0x00
   00D8 00                  271 	.db #0x00
   00D9 00                  272 	.db #0x00
   00DA 00                  273 	.db #0x00
   00DB 00                  274 	.db #0x00
   00DC 00                  275 	.db #0x00
   00DD 00                  276 	.db #0x00
   00DE 00                  277 	.db #0x00
   00DF 00                  278 	.db #0x00
   00E0 00                  279 	.db #0x00
   00E1 00                  280 	.db #0x00
   00E2 00                  281 	.db #0x00
   00E3 00                  282 	.db #0x00
   00E4 00                  283 	.db #0x00
   00E5 00                  284 	.db #0x00
   00E6 00                  285 	.db #0x00
   00E7 5B                  286 	.db #0x5B
   00E8 48                  287 	.db #0x48
   00E9 4A                  288 	.db #0x4A
   00EA 00                  289 	.db #0x00
   00EB 00                  290 	.db #0x00
   00EC 00                  291 	.db #0x00
   00ED 00                  292 	.db #0x00
   00EE 00                  293 	.db #0x00
   00EF 00                  294 	.db #0x00
   00F0 00                  295 	.db #0x00
   00F1 00                  296 	.db #0x00
   00F2 00                  297 	.db #0x00
   00F3 00                  298 	.db #0x00
   00F4 00                  299 	.db #0x00
   00F5 00                  300 	.db #0x00
   00F6 00                  301 	.db #0x00
   00F7 00                  302 	.db #0x00
   00F8 00                  303 	.db #0x00
   00F9 00                  304 	.db #0x00
   00FA 00                  305 	.db #0x00
   00FB 5B                  306 	.db #0x5B
   00FC 49                  307 	.db #0x49
   00FD 4B                  308 	.db #0x4B
   00FE 00                  309 	.db #0x00
   00FF 00                  310 	.db #0x00
   0100 00                  311 	.db #0x00
   0101 00                  312 	.db #0x00
   0102 00                  313 	.db #0x00
   0103 00                  314 	.db #0x00
   0104 00                  315 	.db #0x00
   0105 00                  316 	.db #0x00
   0106 00                  317 	.db #0x00
   0107 00                  318 	.db #0x00
   0108 00                  319 	.db #0x00
   0109 00                  320 	.db #0x00
   010A 00                  321 	.db #0x00
   010B 00                  322 	.db #0x00
   010C 00                  323 	.db #0x00
   010D 00                  324 	.db #0x00
   010E 00                  325 	.db #0x00
   010F 5B                  326 	.db #0x5B
   0110 4C                  327 	.db #0x4C
   0111 4E                  328 	.db #0x4E
   0112 00                  329 	.db #0x00
   0113 00                  330 	.db #0x00
   0114 00                  331 	.db #0x00
   0115 00                  332 	.db #0x00
   0116 00                  333 	.db #0x00
   0117 00                  334 	.db #0x00
   0118 00                  335 	.db #0x00
   0119 00                  336 	.db #0x00
   011A 00                  337 	.db #0x00
   011B 00                  338 	.db #0x00
   011C 00                  339 	.db #0x00
   011D 00                  340 	.db #0x00
   011E 00                  341 	.db #0x00
   011F 00                  342 	.db #0x00
   0120 00                  343 	.db #0x00
   0121 00                  344 	.db #0x00
   0122 00                  345 	.db #0x00
   0123 5B                  346 	.db #0x5B
   0124 4D                  347 	.db #0x4D
   0125 4F                  348 	.db #0x4F
   0126 00                  349 	.db #0x00
   0127 00                  350 	.db #0x00
   0128 00                  351 	.db #0x00
   0129 00                  352 	.db #0x00
   012A 00                  353 	.db #0x00
   012B 00                  354 	.db #0x00
   012C 00                  355 	.db #0x00
   012D 00                  356 	.db #0x00
   012E 00                  357 	.db #0x00
   012F 00                  358 	.db #0x00
   0130 00                  359 	.db #0x00
   0131 00                  360 	.db #0x00
   0132 00                  361 	.db #0x00
   0133 00                  362 	.db #0x00
   0134 00                  363 	.db #0x00
   0135 00                  364 	.db #0x00
   0136 00                  365 	.db #0x00
   0137 00                  366 	.db #0x00
   0138 00                  367 	.db #0x00
   0139 00                  368 	.db #0x00
   013A 00                  369 	.db #0x00
   013B 00                  370 	.db #0x00
   013C 00                  371 	.db #0x00
   013D 00                  372 	.db #0x00
   013E 00                  373 	.db #0x00
   013F 00                  374 	.db #0x00
   0140 00                  375 	.db #0x00
   0141 00                  376 	.db #0x00
   0142 00                  377 	.db #0x00
   0143 00                  378 	.db #0x00
   0144 00                  379 	.db #0x00
   0145 00                  380 	.db #0x00
   0146 00                  381 	.db #0x00
   0147 00                  382 	.db #0x00
   0148 00                  383 	.db #0x00
   0149 00                  384 	.db #0x00
   014A 00                  385 	.db #0x00
   014B 00                  386 	.db #0x00
   014C 7C                  387 	.db #0x7C
   014D 00                  388 	.db #0x00
   014E 73                  389 	.db #0x73
   014F 74                  390 	.db #0x74
   0150 61                  391 	.db #0x61
   0151 72                  392 	.db #0x72
   0152 74                  393 	.db #0x74
   0153 00                  394 	.db #0x00
   0154 00                  395 	.db #0x00
   0155 00                  396 	.db #0x00
   0156 00                  397 	.db #0x00
   0157 00                  398 	.db #0x00
   0158 00                  399 	.db #0x00
   0159 00                  400 	.db #0x00
   015A 00                  401 	.db #0x00
   015B 00                  402 	.db #0x00
   015C 00                  403 	.db #0x00
   015D 00                  404 	.db #0x00
   015E 00                  405 	.db #0x00
   015F 00                  406 	.db #0x00
   0160 00                  407 	.db #0x00
   0161 00                  408 	.db #0x00
   0162 00                  409 	.db #0x00
   0163 00                  410 	.db #0x00
   0164 00                  411 	.db #0x00
   0165 00                  412 	.db #0x00
   0166 00                  413 	.db #0x00
   0167 00                  414 	.db #0x00
ASxxxx Assembler V01.75  (GameBoy Z80-like CPU), page 1.

Symbol Table

  0 _optionScreen                      0000 GR

ASxxxx Assembler V01.75  (GameBoy Z80-like CPU), page 2.

Area Table

   0 _CODE                              size  168   flags 0
   1 _DATA                              size    0   flags 0
   2 _OVERLAY                           size    0   flags 0
   3 _ISEG                              size    0   flags 0
   4 _BSEG                              size    0   flags 0
   5 _XSEG                              size    0   flags 0
   6 _GSINIT                            size    0   flags 0
   7 _GSFINAL                           size    0   flags 0
   8 _HOME                              size    0   flags 0
