                              1 ;--------------------------------------------------------
                              2 ; File Created by SDCC : FreeWare ANSI-C Compiler
                              3 ; Version 2.3.1 Wed Dec 24 09:20:10 2014
                              4 
                              5 ;--------------------------------------------------------
                              6 	.module lcc59330
                              7 	
                              8 ;--------------------------------------------------------
                              9 ; Public variables in this module
                             10 ;--------------------------------------------------------
                             11 	.globl _tiles
                             12 ;--------------------------------------------------------
                             13 ; special function registers
                             14 ;--------------------------------------------------------
                             15 ;--------------------------------------------------------
                             16 ; special function bits 
                             17 ;--------------------------------------------------------
                             18 ;--------------------------------------------------------
                             19 ; internal ram data
                             20 ;--------------------------------------------------------
                             21 	.area _DATA
                             22 ;--------------------------------------------------------
                             23 ; overlayable items in internal ram 
                             24 ;--------------------------------------------------------
                             25 	.area _OVERLAY
                             26 ;--------------------------------------------------------
                             27 ; indirectly addressable internal ram data
                             28 ;--------------------------------------------------------
                             29 	.area _ISEG
                             30 ;--------------------------------------------------------
                             31 ; bit data
                             32 ;--------------------------------------------------------
                             33 	.area _BSEG
                             34 ;--------------------------------------------------------
                             35 ; external ram data
                             36 ;--------------------------------------------------------
                             37 	.area _XSEG
                             38 ;--------------------------------------------------------
                             39 ; global & static initialisations
                             40 ;--------------------------------------------------------
                             41 	.area _GSINIT
                             42 	.area _GSFINAL
                             43 	.area _GSINIT
                             44 ;--------------------------------------------------------
                             45 ; Home
                             46 ;--------------------------------------------------------
                             47 	.area _HOME
                             48 	.area _CODE
                             49 ;--------------------------------------------------------
                             50 ; code
                             51 ;--------------------------------------------------------
                             52 	.area _CODE
                             53 	.area _CODE
   0000                      54 _tiles:
   0000 00                   55 	.db #0x00
   0001 00                   56 	.db #0x00
   0002 00                   57 	.db #0x00
   0003 00                   58 	.db #0x00
   0004 00                   59 	.db #0x00
   0005 00                   60 	.db #0x00
   0006 00                   61 	.db #0x00
   0007 00                   62 	.db #0x00
   0008 00                   63 	.db #0x00
   0009 00                   64 	.db #0x00
   000A 00                   65 	.db #0x00
   000B 00                   66 	.db #0x00
   000C 00                   67 	.db #0x00
   000D 00                   68 	.db #0x00
   000E 00                   69 	.db #0x00
   000F 00                   70 	.db #0x00
   0010 00                   71 	.db #0x00
   0011 00                   72 	.db #0x00
   0012 00                   73 	.db #0x00
   0013 00                   74 	.db #0x00
   0014 00                   75 	.db #0x00
   0015 00                   76 	.db #0x00
   0016 00                   77 	.db #0x00
   0017 00                   78 	.db #0x00
   0018 00                   79 	.db #0x00
   0019 00                   80 	.db #0x00
   001A 00                   81 	.db #0x00
   001B 00                   82 	.db #0x00
   001C 00                   83 	.db #0x00
   001D 00                   84 	.db #0x00
   001E 00                   85 	.db #0x00
   001F 00                   86 	.db #0x00
   0020 00                   87 	.db #0x00
   0021 00                   88 	.db #0x00
   0022 00                   89 	.db #0x00
   0023 00                   90 	.db #0x00
   0024 00                   91 	.db #0x00
   0025 00                   92 	.db #0x00
   0026 00                   93 	.db #0x00
   0027 00                   94 	.db #0x00
   0028 00                   95 	.db #0x00
   0029 00                   96 	.db #0x00
   002A 00                   97 	.db #0x00
   002B 00                   98 	.db #0x00
   002C 00                   99 	.db #0x00
   002D 00                  100 	.db #0x00
   002E 00                  101 	.db #0x00
   002F 00                  102 	.db #0x00
   0030 00                  103 	.db #0x00
   0031 00                  104 	.db #0x00
   0032 00                  105 	.db #0x00
   0033 00                  106 	.db #0x00
   0034 00                  107 	.db #0x00
   0035 00                  108 	.db #0x00
   0036 00                  109 	.db #0x00
   0037 00                  110 	.db #0x00
   0038 00                  111 	.db #0x00
   0039 00                  112 	.db #0x00
   003A 00                  113 	.db #0x00
   003B 00                  114 	.db #0x00
   003C 00                  115 	.db #0x00
   003D 00                  116 	.db #0x00
   003E 00                  117 	.db #0x00
   003F 00                  118 	.db #0x00
   0040 FF                  119 	.db #0xFF
   0041 DB                  120 	.db #0xDB
   0042 FF                  121 	.db #0xFF
   0043 92                  122 	.db #0x92
   0044 FF                  123 	.db #0xFF
   0045 D2                  124 	.db #0xD2
   0046 FF                  125 	.db #0xFF
   0047 52                  126 	.db #0x52
   0048 FF                  127 	.db #0xFF
   0049 DB                  128 	.db #0xDB
   004A FF                  129 	.db #0xFF
   004B 00                  130 	.db #0x00
   004C FF                  131 	.db #0xFF
   004D 00                  132 	.db #0x00
   004E FF                  133 	.db #0xFF
   004F 00                  134 	.db #0x00
   0050 FF                  135 	.db #0xFF
   0051 00                  136 	.db #0x00
   0052 FF                  137 	.db #0xFF
   0053 00                  138 	.db #0x00
   0054 FF                  139 	.db #0xFF
   0055 00                  140 	.db #0x00
   0056 FF                  141 	.db #0xFF
   0057 00                  142 	.db #0x00
   0058 FF                  143 	.db #0xFF
   0059 00                  144 	.db #0x00
   005A FF                  145 	.db #0xFF
   005B 00                  146 	.db #0x00
   005C FF                  147 	.db #0xFF
   005D 00                  148 	.db #0x00
   005E FF                  149 	.db #0xFF
   005F 00                  150 	.db #0x00
   0060 FF                  151 	.db #0xFF
   0061 B3                  152 	.db #0xB3
   0062 FF                  153 	.db #0xFF
   0063 AA                  154 	.db #0xAA
   0064 FF                  155 	.db #0xFF
   0065 B3                  156 	.db #0xB3
   0066 FF                  157 	.db #0xFF
   0067 AA                  158 	.db #0xAA
   0068 FF                  159 	.db #0xFF
   0069 AB                  160 	.db #0xAB
   006A FF                  161 	.db #0xFF
   006B 00                  162 	.db #0x00
   006C FF                  163 	.db #0xFF
   006D 00                  164 	.db #0x00
   006E FF                  165 	.db #0xFF
   006F 00                  166 	.db #0x00
   0070 FF                  167 	.db #0xFF
   0071 00                  168 	.db #0x00
   0072 FF                  169 	.db #0xFF
   0073 00                  170 	.db #0x00
   0074 FF                  171 	.db #0xFF
   0075 00                  172 	.db #0x00
   0076 FF                  173 	.db #0xFF
   0077 00                  174 	.db #0x00
   0078 FF                  175 	.db #0xFF
   0079 00                  176 	.db #0x00
   007A FF                  177 	.db #0xFF
   007B 00                  178 	.db #0x00
   007C FF                  179 	.db #0xFF
   007D 00                  180 	.db #0x00
   007E FF                  181 	.db #0xFF
   007F 00                  182 	.db #0x00
   0080 FF                  183 	.db #0xFF
   0081 CE                  184 	.db #0xCE
   0082 FF                  185 	.db #0xFF
   0083 A8                  186 	.db #0xA8
   0084 FF                  187 	.db #0xFF
   0085 CC                  188 	.db #0xCC
   0086 FF                  189 	.db #0xFF
   0087 A8                  190 	.db #0xA8
   0088 FF                  191 	.db #0xFF
   0089 CE                  192 	.db #0xCE
   008A FF                  193 	.db #0xFF
   008B 00                  194 	.db #0x00
   008C FF                  195 	.db #0xFF
   008D 00                  196 	.db #0x00
   008E FF                  197 	.db #0xFF
   008F 00                  198 	.db #0x00
   0090 FF                  199 	.db #0xFF
   0091 00                  200 	.db #0x00
   0092 FF                  201 	.db #0xFF
   0093 00                  202 	.db #0x00
   0094 FF                  203 	.db #0xFF
   0095 00                  204 	.db #0x00
   0096 FF                  205 	.db #0xFF
   0097 00                  206 	.db #0x00
   0098 FF                  207 	.db #0xFF
   0099 00                  208 	.db #0x00
   009A FF                  209 	.db #0xFF
   009B 00                  210 	.db #0x00
   009C FF                  211 	.db #0xFF
   009D 00                  212 	.db #0x00
   009E FF                  213 	.db #0xFF
   009F 00                  214 	.db #0x00
   00A0 FF                  215 	.db #0xFF
   00A1 DC                  216 	.db #0xDC
   00A2 FF                  217 	.db #0xFF
   00A3 88                  218 	.db #0x88
   00A4 FF                  219 	.db #0xFF
   00A5 C8                  220 	.db #0xC8
   00A6 FF                  221 	.db #0xFF
   00A7 48                  222 	.db #0x48
   00A8 FF                  223 	.db #0xFF
   00A9 C8                  224 	.db #0xC8
   00AA FF                  225 	.db #0xFF
   00AB 00                  226 	.db #0x00
   00AC FF                  227 	.db #0xFF
   00AD 00                  228 	.db #0x00
   00AE FF                  229 	.db #0xFF
   00AF 00                  230 	.db #0x00
   00B0 FF                  231 	.db #0xFF
   00B1 00                  232 	.db #0x00
   00B2 FF                  233 	.db #0xFF
   00B3 00                  234 	.db #0x00
   00B4 FF                  235 	.db #0xFF
   00B5 00                  236 	.db #0x00
   00B6 FF                  237 	.db #0xFF
   00B7 00                  238 	.db #0x00
   00B8 FF                  239 	.db #0xFF
   00B9 00                  240 	.db #0x00
   00BA FF                  241 	.db #0xFF
   00BB 00                  242 	.db #0x00
   00BC FF                  243 	.db #0xFF
   00BD 00                  244 	.db #0x00
   00BE FF                  245 	.db #0xFF
   00BF 00                  246 	.db #0x00
   00C0 00                  247 	.db #0x00
   00C1 00                  248 	.db #0x00
   00C2 00                  249 	.db #0x00
   00C3 00                  250 	.db #0x00
   00C4 00                  251 	.db #0x00
   00C5 00                  252 	.db #0x00
   00C6 0F                  253 	.db #0x0F
   00C7 0F                  254 	.db #0x0F
   00C8 00                  255 	.db #0x00
   00C9 00                  256 	.db #0x00
   00CA 00                  257 	.db #0x00
   00CB 00                  258 	.db #0x00
   00CC 00                  259 	.db #0x00
   00CD 00                  260 	.db #0x00
   00CE 0F                  261 	.db #0x0F
   00CF 0F                  262 	.db #0x0F
   00D0 08                  263 	.db #0x08
   00D1 08                  264 	.db #0x08
   00D2 08                  265 	.db #0x08
   00D3 08                  266 	.db #0x08
   00D4 08                  267 	.db #0x08
   00D5 08                  268 	.db #0x08
   00D6 0F                  269 	.db #0x0F
   00D7 0F                  270 	.db #0x0F
   00D8 00                  271 	.db #0x00
   00D9 00                  272 	.db #0x00
   00DA 00                  273 	.db #0x00
   00DB 00                  274 	.db #0x00
   00DC 00                  275 	.db #0x00
   00DD 00                  276 	.db #0x00
   00DE FF                  277 	.db #0xFF
   00DF FF                  278 	.db #0xFF
   00E0 01                  279 	.db #0x01
   00E1 01                  280 	.db #0x01
   00E2 01                  281 	.db #0x01
   00E3 01                  282 	.db #0x01
   00E4 01                  283 	.db #0x01
   00E5 01                  284 	.db #0x01
   00E6 E1                  285 	.db #0xE1
   00E7 E1                  286 	.db #0xE1
   00E8 21                  287 	.db #0x21
   00E9 21                  288 	.db #0x21
   00EA 21                  289 	.db #0x21
   00EB 21                  290 	.db #0x21
   00EC 21                  291 	.db #0x21
   00ED 21                  292 	.db #0x21
   00EE E1                  293 	.db #0xE1
   00EF E1                  294 	.db #0xE1
   00F0 01                  295 	.db #0x01
   00F1 01                  296 	.db #0x01
   00F2 01                  297 	.db #0x01
   00F3 01                  298 	.db #0x01
   00F4 01                  299 	.db #0x01
   00F5 01                  300 	.db #0x01
   00F6 E1                  301 	.db #0xE1
   00F7 E1                  302 	.db #0xE1
   00F8 01                  303 	.db #0x01
   00F9 01                  304 	.db #0x01
   00FA 01                  305 	.db #0x01
   00FB 01                  306 	.db #0x01
   00FC 01                  307 	.db #0x01
   00FD 01                  308 	.db #0x01
   00FE FF                  309 	.db #0xFF
   00FF FF                  310 	.db #0xFF
   0100 00                  311 	.db #0x00
   0101 00                  312 	.db #0x00
   0102 00                  313 	.db #0x00
   0103 00                  314 	.db #0x00
   0104 00                  315 	.db #0x00
   0105 00                  316 	.db #0x00
   0106 08                  317 	.db #0x08
   0107 08                  318 	.db #0x08
   0108 08                  319 	.db #0x08
   0109 08                  320 	.db #0x08
   010A 08                  321 	.db #0x08
   010B 08                  322 	.db #0x08
   010C 08                  323 	.db #0x08
   010D 08                  324 	.db #0x08
   010E 0F                  325 	.db #0x0F
   010F 0F                  326 	.db #0x0F
   0110 00                  327 	.db #0x00
   0111 00                  328 	.db #0x00
   0112 00                  329 	.db #0x00
   0113 00                  330 	.db #0x00
   0114 00                  331 	.db #0x00
   0115 00                  332 	.db #0x00
   0116 00                  333 	.db #0x00
   0117 00                  334 	.db #0x00
   0118 00                  335 	.db #0x00
   0119 00                  336 	.db #0x00
   011A 00                  337 	.db #0x00
   011B 00                  338 	.db #0x00
   011C 00                  339 	.db #0x00
   011D 00                  340 	.db #0x00
   011E FF                  341 	.db #0xFF
   011F FF                  342 	.db #0xFF
   0120 01                  343 	.db #0x01
   0121 01                  344 	.db #0x01
   0122 01                  345 	.db #0x01
   0123 01                  346 	.db #0x01
   0124 01                  347 	.db #0x01
   0125 01                  348 	.db #0x01
   0126 21                  349 	.db #0x21
   0127 21                  350 	.db #0x21
   0128 21                  351 	.db #0x21
   0129 21                  352 	.db #0x21
   012A 21                  353 	.db #0x21
   012B 21                  354 	.db #0x21
   012C 21                  355 	.db #0x21
   012D 21                  356 	.db #0x21
   012E E1                  357 	.db #0xE1
   012F E1                  358 	.db #0xE1
   0130 21                  359 	.db #0x21
   0131 21                  360 	.db #0x21
   0132 21                  361 	.db #0x21
   0133 21                  362 	.db #0x21
   0134 21                  363 	.db #0x21
   0135 21                  364 	.db #0x21
   0136 21                  365 	.db #0x21
   0137 21                  366 	.db #0x21
   0138 01                  367 	.db #0x01
   0139 01                  368 	.db #0x01
   013A 01                  369 	.db #0x01
   013B 01                  370 	.db #0x01
   013C 01                  371 	.db #0x01
   013D 01                  372 	.db #0x01
   013E FF                  373 	.db #0xFF
   013F FF                  374 	.db #0xFF
   0140 FF                  375 	.db #0xFF
   0141 00                  376 	.db #0x00
   0142 FF                  377 	.db #0xFF
   0143 00                  378 	.db #0x00
   0144 FF                  379 	.db #0xFF
   0145 00                  380 	.db #0x00
   0146 FF                  381 	.db #0xFF
   0147 0F                  382 	.db #0x0F
   0148 FF                  383 	.db #0xFF
   0149 08                  384 	.db #0x08
   014A FF                  385 	.db #0xFF
   014B 08                  386 	.db #0x08
   014C FF                  387 	.db #0xFF
   014D 08                  388 	.db #0x08
   014E FF                  389 	.db #0xFF
   014F 0F                  390 	.db #0x0F
   0150 FF                  391 	.db #0xFF
   0151 08                  392 	.db #0x08
   0152 FF                  393 	.db #0xFF
   0153 08                  394 	.db #0x08
   0154 FF                  395 	.db #0xFF
   0155 08                  396 	.db #0x08
   0156 FF                  397 	.db #0xFF
   0157 0F                  398 	.db #0x0F
   0158 FF                  399 	.db #0xFF
   0159 00                  400 	.db #0x00
   015A FF                  401 	.db #0xFF
   015B 00                  402 	.db #0x00
   015C FF                  403 	.db #0xFF
   015D 00                  404 	.db #0x00
   015E FF                  405 	.db #0xFF
   015F FF                  406 	.db #0xFF
   0160 FF                  407 	.db #0xFF
   0161 01                  408 	.db #0x01
   0162 FF                  409 	.db #0xFF
   0163 01                  410 	.db #0x01
   0164 FF                  411 	.db #0xFF
   0165 01                  412 	.db #0x01
   0166 FF                  413 	.db #0xFF
   0167 E1                  414 	.db #0xE1
   0168 FF                  415 	.db #0xFF
   0169 21                  416 	.db #0x21
   016A FF                  417 	.db #0xFF
   016B 21                  418 	.db #0x21
   016C FF                  419 	.db #0xFF
   016D 21                  420 	.db #0x21
   016E FF                  421 	.db #0xFF
   016F E1                  422 	.db #0xE1
   0170 FF                  423 	.db #0xFF
   0171 21                  424 	.db #0x21
   0172 FF                  425 	.db #0xFF
   0173 21                  426 	.db #0x21
   0174 FF                  427 	.db #0xFF
   0175 21                  428 	.db #0x21
   0176 FF                  429 	.db #0xFF
   0177 E1                  430 	.db #0xE1
   0178 FF                  431 	.db #0xFF
   0179 01                  432 	.db #0x01
   017A FF                  433 	.db #0xFF
   017B 01                  434 	.db #0x01
   017C FF                  435 	.db #0xFF
   017D 01                  436 	.db #0x01
   017E FF                  437 	.db #0xFF
   017F FF                  438 	.db #0xFF
   0180 FF                  439 	.db #0xFF
   0181 00                  440 	.db #0x00
   0182 FF                  441 	.db #0xFF
   0183 00                  442 	.db #0x00
   0184 FF                  443 	.db #0xFF
   0185 00                  444 	.db #0x00
   0186 FF                  445 	.db #0xFF
   0187 13                  446 	.db #0x13
   0188 FF                  447 	.db #0xFF
   0189 12                  448 	.db #0x12
   018A FF                  449 	.db #0xFF
   018B 12                  450 	.db #0x12
   018C FF                  451 	.db #0xFF
   018D 12                  452 	.db #0x12
   018E FF                  453 	.db #0xFF
   018F 13                  454 	.db #0x13
   0190 FF                  455 	.db #0xFF
   0191 12                  456 	.db #0x12
   0192 FF                  457 	.db #0xFF
   0193 12                  458 	.db #0x12
   0194 FF                  459 	.db #0xFF
   0195 12                  460 	.db #0x12
   0196 FF                  461 	.db #0xFF
   0197 13                  462 	.db #0x13
   0198 FF                  463 	.db #0xFF
   0199 00                  464 	.db #0x00
   019A FF                  465 	.db #0xFF
   019B 00                  466 	.db #0x00
   019C FF                  467 	.db #0xFF
   019D 00                  468 	.db #0x00
   019E FF                  469 	.db #0xFF
   019F FF                  470 	.db #0xFF
   01A0 FF                  471 	.db #0xFF
   01A1 01                  472 	.db #0x01
   01A2 FF                  473 	.db #0xFF
   01A3 01                  474 	.db #0x01
   01A4 FF                  475 	.db #0xFF
   01A5 01                  476 	.db #0x01
   01A6 FF                  477 	.db #0xFF
   01A7 F9                  478 	.db #0xF9
   01A8 FF                  479 	.db #0xFF
   01A9 01                  480 	.db #0x01
   01AA FF                  481 	.db #0xFF
   01AB 01                  482 	.db #0x01
   01AC FF                  483 	.db #0xFF
   01AD 01                  484 	.db #0x01
   01AE FF                  485 	.db #0xFF
   01AF F9                  486 	.db #0xF9
   01B0 FF                  487 	.db #0xFF
   01B1 09                  488 	.db #0x09
   01B2 FF                  489 	.db #0xFF
   01B3 09                  490 	.db #0x09
   01B4 FF                  491 	.db #0xFF
   01B5 09                  492 	.db #0x09
   01B6 FF                  493 	.db #0xFF
   01B7 F9                  494 	.db #0xF9
   01B8 FF                  495 	.db #0xFF
   01B9 01                  496 	.db #0x01
   01BA FF                  497 	.db #0xFF
   01BB 01                  498 	.db #0x01
   01BC FF                  499 	.db #0xFF
   01BD 01                  500 	.db #0x01
   01BE FF                  501 	.db #0xFF
   01BF FF                  502 	.db #0xFF
   01C0 FF                  503 	.db #0xFF
   01C1 00                  504 	.db #0x00
   01C2 FF                  505 	.db #0xFF
   01C3 00                  506 	.db #0x00
   01C4 FF                  507 	.db #0xFF
   01C5 00                  508 	.db #0x00
   01C6 FF                  509 	.db #0xFF
   01C7 00                  510 	.db #0x00
   01C8 FF                  511 	.db #0xFF
   01C9 1E                  512 	.db #0x1E
   01CA FF                  513 	.db #0xFF
   01CB 02                  514 	.db #0x02
   01CC FF                  515 	.db #0xFF
   01CD 02                  516 	.db #0x02
   01CE FF                  517 	.db #0xFF
   01CF 0E                  518 	.db #0x0E
   01D0 FF                  519 	.db #0xFF
   01D1 02                  520 	.db #0x02
   01D2 FF                  521 	.db #0xFF
   01D3 02                  522 	.db #0x02
   01D4 FF                  523 	.db #0xFF
   01D5 1E                  524 	.db #0x1E
   01D6 FF                  525 	.db #0xFF
   01D7 00                  526 	.db #0x00
   01D8 FF                  527 	.db #0xFF
   01D9 00                  528 	.db #0x00
   01DA FF                  529 	.db #0xFF
   01DB 00                  530 	.db #0x00
   01DC FF                  531 	.db #0xFF
   01DD 00                  532 	.db #0x00
   01DE FF                  533 	.db #0xFF
   01DF FF                  534 	.db #0xFF
   01E0 FF                  535 	.db #0xFF
   01E1 01                  536 	.db #0x01
   01E2 FF                  537 	.db #0xFF
   01E3 01                  538 	.db #0x01
   01E4 FF                  539 	.db #0xFF
   01E5 01                  540 	.db #0x01
   01E6 FF                  541 	.db #0xFF
   01E7 01                  542 	.db #0x01
   01E8 FF                  543 	.db #0xFF
   01E9 F1                  544 	.db #0xF1
   01EA FF                  545 	.db #0xFF
   01EB 11                  546 	.db #0x11
   01EC FF                  547 	.db #0xFF
   01ED 11                  548 	.db #0x11
   01EE FF                  549 	.db #0xFF
   01EF F1                  550 	.db #0xF1
   01F0 FF                  551 	.db #0xFF
   01F1 81                  552 	.db #0x81
   01F2 FF                  553 	.db #0xFF
   01F3 81                  554 	.db #0x81
   01F4 FF                  555 	.db #0xFF
   01F5 F1                  556 	.db #0xF1
   01F6 FF                  557 	.db #0xFF
   01F7 01                  558 	.db #0x01
   01F8 FF                  559 	.db #0xFF
   01F9 01                  560 	.db #0x01
   01FA FF                  561 	.db #0xFF
   01FB 01                  562 	.db #0x01
   01FC FF                  563 	.db #0xFF
   01FD 01                  564 	.db #0x01
   01FE FF                  565 	.db #0xFF
   01FF FF                  566 	.db #0xFF
   0200 FF                  567 	.db #0xFF
   0201 00                  568 	.db #0x00
   0202 FF                  569 	.db #0xFF
   0203 00                  570 	.db #0x00
   0204 FF                  571 	.db #0xFF
   0205 00                  572 	.db #0x00
   0206 FF                  573 	.db #0xFF
   0207 00                  574 	.db #0x00
   0208 FF                  575 	.db #0xFF
   0209 1E                  576 	.db #0x1E
   020A FF                  577 	.db #0xFF
   020B 10                  578 	.db #0x10
   020C FF                  579 	.db #0xFF
   020D 10                  580 	.db #0x10
   020E FF                  581 	.db #0xFF
   020F 1E                  582 	.db #0x1E
   0210 FF                  583 	.db #0xFF
   0211 12                  584 	.db #0x12
   0212 FF                  585 	.db #0xFF
   0213 12                  586 	.db #0x12
   0214 FF                  587 	.db #0xFF
   0215 1E                  588 	.db #0x1E
   0216 FF                  589 	.db #0xFF
   0217 00                  590 	.db #0x00
   0218 FF                  591 	.db #0xFF
   0219 00                  592 	.db #0x00
   021A FF                  593 	.db #0xFF
   021B 00                  594 	.db #0x00
   021C FF                  595 	.db #0xFF
   021D 00                  596 	.db #0x00
   021E FF                  597 	.db #0xFF
   021F FF                  598 	.db #0xFF
   0220 FF                  599 	.db #0xFF
   0221 01                  600 	.db #0x01
   0222 FF                  601 	.db #0xFF
   0223 01                  602 	.db #0x01
   0224 FF                  603 	.db #0xFF
   0225 01                  604 	.db #0x01
   0226 FF                  605 	.db #0xFF
   0227 01                  606 	.db #0x01
   0228 FF                  607 	.db #0xFF
   0229 91                  608 	.db #0x91
   022A FF                  609 	.db #0xFF
   022B 91                  610 	.db #0x91
   022C FF                  611 	.db #0xFF
   022D 91                  612 	.db #0x91
   022E FF                  613 	.db #0xFF
   022F F1                  614 	.db #0xF1
   0230 FF                  615 	.db #0xFF
   0231 11                  616 	.db #0x11
   0232 FF                  617 	.db #0xFF
   0233 11                  618 	.db #0x11
   0234 FF                  619 	.db #0xFF
   0235 11                  620 	.db #0x11
   0236 FF                  621 	.db #0xFF
   0237 01                  622 	.db #0x01
   0238 FF                  623 	.db #0xFF
   0239 01                  624 	.db #0x01
   023A FF                  625 	.db #0xFF
   023B 01                  626 	.db #0x01
   023C FF                  627 	.db #0xFF
   023D 01                  628 	.db #0x01
   023E FF                  629 	.db #0xFF
   023F FF                  630 	.db #0xFF
   0240 00                  631 	.db #0x00
   0241 FF                  632 	.db #0xFF
   0242 00                  633 	.db #0x00
   0243 FF                  634 	.db #0xFF
   0244 00                  635 	.db #0x00
   0245 FF                  636 	.db #0xFF
   0246 00                  637 	.db #0x00
   0247 FF                  638 	.db #0xFF
   0248 2F                  639 	.db #0x2F
   0249 FF                  640 	.db #0xFF
   024A 21                  641 	.db #0x21
   024B FF                  642 	.db #0xFF
   024C 21                  643 	.db #0x21
   024D FF                  644 	.db #0xFF
   024E 2F                  645 	.db #0x2F
   024F FF                  646 	.db #0xFF
   0250 28                  647 	.db #0x28
   0251 FF                  648 	.db #0xFF
   0252 28                  649 	.db #0x28
   0253 FF                  650 	.db #0xFF
   0254 2F                  651 	.db #0x2F
   0255 FF                  652 	.db #0xFF
   0256 00                  653 	.db #0x00
   0257 FF                  654 	.db #0xFF
   0258 00                  655 	.db #0x00
   0259 FF                  656 	.db #0xFF
   025A 00                  657 	.db #0x00
   025B FF                  658 	.db #0xFF
   025C 00                  659 	.db #0x00
   025D FF                  660 	.db #0xFF
   025E FF                  661 	.db #0xFF
   025F FF                  662 	.db #0xFF
   0260 01                  663 	.db #0x01
   0261 FF                  664 	.db #0xFF
   0262 01                  665 	.db #0x01
   0263 FF                  666 	.db #0xFF
   0264 01                  667 	.db #0x01
   0265 FF                  668 	.db #0xFF
   0266 01                  669 	.db #0x01
   0267 FF                  670 	.db #0xFF
   0268 79                  671 	.db #0x79
   0269 FF                  672 	.db #0xFF
   026A 49                  673 	.db #0x49
   026B FF                  674 	.db #0xFF
   026C 49                  675 	.db #0x49
   026D FF                  676 	.db #0xFF
   026E 79                  677 	.db #0x79
   026F FF                  678 	.db #0xFF
   0270 49                  679 	.db #0x49
   0271 FF                  680 	.db #0xFF
   0272 49                  681 	.db #0x49
   0273 FF                  682 	.db #0xFF
   0274 79                  683 	.db #0x79
   0275 FF                  684 	.db #0xFF
   0276 01                  685 	.db #0x01
   0277 FF                  686 	.db #0xFF
   0278 01                  687 	.db #0x01
   0279 FF                  688 	.db #0xFF
   027A 01                  689 	.db #0x01
   027B FF                  690 	.db #0xFF
   027C 01                  691 	.db #0x01
   027D FF                  692 	.db #0xFF
   027E FF                  693 	.db #0xFF
   027F FF                  694 	.db #0xFF
   0280 00                  695 	.db #0x00
   0281 FF                  696 	.db #0xFF
   0282 00                  697 	.db #0x00
   0283 FF                  698 	.db #0xFF
   0284 00                  699 	.db #0x00
   0285 FF                  700 	.db #0xFF
   0286 00                  701 	.db #0x00
   0287 FF                  702 	.db #0xFF
   0288 00                  703 	.db #0x00
   0289 FF                  704 	.db #0xFF
   028A 3B                  705 	.db #0x3B
   028B FF                  706 	.db #0xFF
   028C 0A                  707 	.db #0x0A
   028D FF                  708 	.db #0xFF
   028E 3B                  709 	.db #0x3B
   028F FF                  710 	.db #0xFF
   0290 20                  711 	.db #0x20
   0291 FF                  712 	.db #0xFF
   0292 3B                  713 	.db #0x3B
   0293 FF                  714 	.db #0xFF
   0294 00                  715 	.db #0x00
   0295 FF                  716 	.db #0xFF
   0296 00                  717 	.db #0x00
   0297 FF                  718 	.db #0xFF
   0298 00                  719 	.db #0x00
   0299 FF                  720 	.db #0xFF
   029A 00                  721 	.db #0x00
   029B FF                  722 	.db #0xFF
   029C 00                  723 	.db #0x00
   029D FF                  724 	.db #0xFF
   029E FF                  725 	.db #0xFF
   029F FF                  726 	.db #0xFF
   02A0 01                  727 	.db #0x01
   02A1 FF                  728 	.db #0xFF
   02A2 01                  729 	.db #0x01
   02A3 FF                  730 	.db #0xFF
   02A4 01                  731 	.db #0x01
   02A5 FF                  732 	.db #0xFF
   02A6 01                  733 	.db #0x01
   02A7 FF                  734 	.db #0xFF
   02A8 01                  735 	.db #0x01
   02A9 FF                  736 	.db #0xFF
   02AA B9                  737 	.db #0xB9
   02AB FF                  738 	.db #0xFF
   02AC 21                  739 	.db #0x21
   02AD FF                  740 	.db #0xFF
   02AE B9                  741 	.db #0xB9
   02AF FF                  742 	.db #0xFF
   02B0 A9                  743 	.db #0xA9
   02B1 FF                  744 	.db #0xFF
   02B2 B9                  745 	.db #0xB9
   02B3 FF                  746 	.db #0xFF
   02B4 01                  747 	.db #0x01
   02B5 FF                  748 	.db #0xFF
   02B6 01                  749 	.db #0x01
   02B7 FF                  750 	.db #0xFF
   02B8 01                  751 	.db #0x01
   02B9 FF                  752 	.db #0xFF
   02BA 01                  753 	.db #0x01
   02BB FF                  754 	.db #0xFF
   02BC 01                  755 	.db #0x01
   02BD FF                  756 	.db #0xFF
   02BE FF                  757 	.db #0xFF
   02BF FF                  758 	.db #0xFF
   02C0 00                  759 	.db #0x00
   02C1 FF                  760 	.db #0xFF
   02C2 00                  761 	.db #0x00
   02C3 FF                  762 	.db #0xFF
   02C4 00                  763 	.db #0x00
   02C5 FF                  764 	.db #0xFF
   02C6 00                  765 	.db #0x00
   02C7 FF                  766 	.db #0xFF
   02C8 00                  767 	.db #0x00
   02C9 FF                  768 	.db #0xFF
   02CA 1D                  769 	.db #0x1D
   02CB E2                  770 	.db #0xE2
   02CC 11                  771 	.db #0x11
   02CD EE                  772 	.db #0xEE
   02CE 1D                  773 	.db #0x1D
   02CF E2                  774 	.db #0xE2
   02D0 05                  775 	.db #0x05
   02D1 FA                  776 	.db #0xFA
   02D2 1D                  777 	.db #0x1D
   02D3 E2                  778 	.db #0xE2
   02D4 00                  779 	.db #0x00
   02D5 FF                  780 	.db #0xFF
   02D6 00                  781 	.db #0x00
   02D7 FF                  782 	.db #0xFF
   02D8 00                  783 	.db #0x00
   02D9 FF                  784 	.db #0xFF
   02DA 00                  785 	.db #0x00
   02DB FF                  786 	.db #0xFF
   02DC 00                  787 	.db #0x00
   02DD FF                  788 	.db #0xFF
   02DE FF                  789 	.db #0xFF
   02DF FF                  790 	.db #0xFF
   02E0 01                  791 	.db #0x01
   02E1 FF                  792 	.db #0xFF
   02E2 01                  793 	.db #0x01
   02E3 FF                  794 	.db #0xFF
   02E4 01                  795 	.db #0x01
   02E5 FF                  796 	.db #0xFF
   02E6 01                  797 	.db #0x01
   02E7 FF                  798 	.db #0xFF
   02E8 01                  799 	.db #0x01
   02E9 FF                  800 	.db #0xFF
   02EA 71                  801 	.db #0x71
   02EB 8F                  802 	.db #0x8F
   02EC 11                  803 	.db #0x11
   02ED EF                  804 	.db #0xEF
   02EE 71                  805 	.db #0x71
   02EF 8F                  806 	.db #0x8F
   02F0 41                  807 	.db #0x41
   02F1 BF                  808 	.db #0xBF
   02F2 71                  809 	.db #0x71
   02F3 8F                  810 	.db #0x8F
   02F4 01                  811 	.db #0x01
   02F5 FF                  812 	.db #0xFF
   02F6 01                  813 	.db #0x01
   02F7 FF                  814 	.db #0xFF
   02F8 01                  815 	.db #0x01
   02F9 FF                  816 	.db #0xFF
   02FA 01                  817 	.db #0x01
   02FB FF                  818 	.db #0xFF
   02FC 01                  819 	.db #0x01
   02FD FF                  820 	.db #0xFF
   02FE FF                  821 	.db #0xFF
   02FF FF                  822 	.db #0xFF
   0300 00                  823 	.db #0x00
   0301 FF                  824 	.db #0xFF
   0302 00                  825 	.db #0x00
   0303 FF                  826 	.db #0xFF
   0304 00                  827 	.db #0x00
   0305 FF                  828 	.db #0xFF
   0306 00                  829 	.db #0x00
   0307 FF                  830 	.db #0xFF
   0308 00                  831 	.db #0x00
   0309 FF                  832 	.db #0xFF
   030A 5D                  833 	.db #0x5D
   030B A2                  834 	.db #0xA2
   030C 54                  835 	.db #0x54
   030D AB                  836 	.db #0xAB
   030E 55                  837 	.db #0x55
   030F AA                  838 	.db #0xAA
   0310 55                  839 	.db #0x55
   0311 AA                  840 	.db #0xAA
   0312 5D                  841 	.db #0x5D
   0313 A2                  842 	.db #0xA2
   0314 00                  843 	.db #0x00
   0315 FF                  844 	.db #0xFF
   0316 00                  845 	.db #0x00
   0317 FF                  846 	.db #0xFF
   0318 00                  847 	.db #0x00
   0319 FF                  848 	.db #0xFF
   031A 00                  849 	.db #0x00
   031B FF                  850 	.db #0xFF
   031C 00                  851 	.db #0x00
   031D FF                  852 	.db #0xFF
   031E FF                  853 	.db #0xFF
   031F FF                  854 	.db #0xFF
   0320 01                  855 	.db #0x01
   0321 FF                  856 	.db #0xFF
   0322 01                  857 	.db #0x01
   0323 FF                  858 	.db #0xFF
   0324 01                  859 	.db #0x01
   0325 FF                  860 	.db #0xFF
   0326 01                  861 	.db #0x01
   0327 FF                  862 	.db #0xFF
   0328 01                  863 	.db #0x01
   0329 FF                  864 	.db #0xFF
   032A D5                  865 	.db #0xD5
   032B 2B                  866 	.db #0x2B
   032C 55                  867 	.db #0x55
   032D AB                  868 	.db #0xAB
   032E DD                  869 	.db #0xDD
   032F 23                  870 	.db #0x23
   0330 05                  871 	.db #0x05
   0331 FB                  872 	.db #0xFB
   0332 C5                  873 	.db #0xC5
   0333 3B                  874 	.db #0x3B
   0334 01                  875 	.db #0x01
   0335 FF                  876 	.db #0xFF
   0336 01                  877 	.db #0x01
   0337 FF                  878 	.db #0xFF
   0338 01                  879 	.db #0x01
   0339 FF                  880 	.db #0xFF
   033A 01                  881 	.db #0x01
   033B FF                  882 	.db #0xFF
   033C 01                  883 	.db #0x01
   033D FF                  884 	.db #0xFF
   033E FF                  885 	.db #0xFF
   033F FF                  886 	.db #0xFF
   0340 00                  887 	.db #0x00
   0341 FF                  888 	.db #0xFF
   0342 00                  889 	.db #0x00
   0343 FF                  890 	.db #0xFF
   0344 00                  891 	.db #0x00
   0345 FF                  892 	.db #0xFF
   0346 00                  893 	.db #0x00
   0347 FF                  894 	.db #0xFF
   0348 00                  895 	.db #0x00
   0349 FF                  896 	.db #0xFF
   034A 00                  897 	.db #0x00
   034B 91                  898 	.db #0x91
   034C 00                  899 	.db #0x00
   034D D5                  900 	.db #0xD5
   034E 00                  901 	.db #0x00
   034F 95                  902 	.db #0x95
   0350 00                  903 	.db #0x00
   0351 B5                  904 	.db #0xB5
   0352 00                  905 	.db #0x00
   0353 91                  906 	.db #0x91
   0354 00                  907 	.db #0x00
   0355 FF                  908 	.db #0xFF
   0356 00                  909 	.db #0x00
   0357 FF                  910 	.db #0xFF
   0358 00                  911 	.db #0x00
   0359 FF                  912 	.db #0xFF
   035A 00                  913 	.db #0x00
   035B FF                  914 	.db #0xFF
   035C 00                  915 	.db #0x00
   035D FF                  916 	.db #0xFF
   035E FF                  917 	.db #0xFF
   035F FF                  918 	.db #0xFF
   0360 01                  919 	.db #0x01
   0361 FF                  920 	.db #0xFF
   0362 01                  921 	.db #0x01
   0363 FF                  922 	.db #0xFF
   0364 01                  923 	.db #0x01
   0365 FF                  924 	.db #0xFF
   0366 01                  925 	.db #0x01
   0367 FF                  926 	.db #0xFF
   0368 01                  927 	.db #0x01
   0369 FF                  928 	.db #0xFF
   036A 01                  929 	.db #0x01
   036B 51                  930 	.db #0x51
   036C 01                  931 	.db #0x01
   036D 55                  932 	.db #0x55
   036E 01                  933 	.db #0x01
   036F 11                  934 	.db #0x11
   0370 01                  935 	.db #0x01
   0371 D5                  936 	.db #0xD5
   0372 01                  937 	.db #0x01
   0373 D1                  938 	.db #0xD1
   0374 01                  939 	.db #0x01
   0375 FF                  940 	.db #0xFF
   0376 01                  941 	.db #0x01
   0377 FF                  942 	.db #0xFF
   0378 01                  943 	.db #0x01
   0379 FF                  944 	.db #0xFF
   037A 01                  945 	.db #0x01
   037B FF                  946 	.db #0xFF
   037C 01                  947 	.db #0x01
   037D FF                  948 	.db #0xFF
   037E FF                  949 	.db #0xFF
   037F FF                  950 	.db #0xFF
   0380 00                  951 	.db #0x00
   0381 FF                  952 	.db #0xFF
   0382 00                  953 	.db #0x00
   0383 FF                  954 	.db #0xFF
   0384 00                  955 	.db #0x00
   0385 FF                  956 	.db #0xFF
   0386 00                  957 	.db #0x00
   0387 FF                  958 	.db #0xFF
   0388 00                  959 	.db #0x00
   0389 FF                  960 	.db #0xFF
   038A 00                  961 	.db #0x00
   038B 51                  962 	.db #0x51
   038C 00                  963 	.db #0x00
   038D 55                  964 	.db #0x55
   038E 00                  965 	.db #0x00
   038F 15                  966 	.db #0x15
   0390 00                  967 	.db #0x00
   0391 D5                  968 	.db #0xD5
   0392 00                  969 	.db #0x00
   0393 D1                  970 	.db #0xD1
   0394 00                  971 	.db #0x00
   0395 FF                  972 	.db #0xFF
   0396 00                  973 	.db #0x00
   0397 FF                  974 	.db #0xFF
   0398 00                  975 	.db #0x00
   0399 FF                  976 	.db #0xFF
   039A 00                  977 	.db #0x00
   039B FF                  978 	.db #0xFF
   039C 00                  979 	.db #0x00
   039D FF                  980 	.db #0xFF
   039E FF                  981 	.db #0xFF
   039F FF                  982 	.db #0xFF
   03A0 01                  983 	.db #0x01
   03A1 FF                  984 	.db #0xFF
   03A2 01                  985 	.db #0x01
   03A3 FF                  986 	.db #0xFF
   03A4 01                  987 	.db #0x01
   03A5 FF                  988 	.db #0xFF
   03A6 01                  989 	.db #0x01
   03A7 FF                  990 	.db #0xFF
   03A8 01                  991 	.db #0x01
   03A9 FF                  992 	.db #0xFF
   03AA 01                  993 	.db #0x01
   03AB 11                  994 	.db #0x11
   03AC 01                  995 	.db #0x01
   03AD 57                  996 	.db #0x57
   03AE 01                  997 	.db #0x01
   03AF 11                  998 	.db #0x11
   03B0 01                  999 	.db #0x01
   03B1 D5                 1000 	.db #0xD5
   03B2 01                 1001 	.db #0x01
   03B3 11                 1002 	.db #0x11
   03B4 01                 1003 	.db #0x01
   03B5 FF                 1004 	.db #0xFF
   03B6 01                 1005 	.db #0x01
   03B7 FF                 1006 	.db #0xFF
   03B8 01                 1007 	.db #0x01
   03B9 FF                 1008 	.db #0xFF
   03BA 01                 1009 	.db #0x01
   03BB FF                 1010 	.db #0xFF
   03BC 01                 1011 	.db #0x01
   03BD FF                 1012 	.db #0xFF
   03BE FF                 1013 	.db #0xFF
   03BF FF                 1014 	.db #0xFF
   03C0 00                 1015 	.db #0x00
   03C1 FF                 1016 	.db #0xFF
   03C2 00                 1017 	.db #0x00
   03C3 FF                 1018 	.db #0xFF
   03C4 00                 1019 	.db #0x00
   03C5 FF                 1020 	.db #0xFF
   03C6 00                 1021 	.db #0x00
   03C7 FF                 1022 	.db #0xFF
   03C8 00                 1023 	.db #0x00
   03C9 FF                 1024 	.db #0xFF
   03CA 00                 1025 	.db #0x00
   03CB 8A                 1026 	.db #0x8A
   03CC 00                 1027 	.db #0x00
   03CD AA                 1028 	.db #0xAA
   03CE 00                 1029 	.db #0x00
   03CF 8A                 1030 	.db #0x8A
   03D0 00                 1031 	.db #0x00
   03D1 AB                 1032 	.db #0xAB
   03D2 00                 1033 	.db #0x00
   03D3 8A                 1034 	.db #0x8A
   03D4 00                 1035 	.db #0x00
   03D5 FF                 1036 	.db #0xFF
   03D6 00                 1037 	.db #0x00
   03D7 FF                 1038 	.db #0xFF
   03D8 00                 1039 	.db #0x00
   03D9 FF                 1040 	.db #0xFF
   03DA 00                 1041 	.db #0x00
   03DB FF                 1042 	.db #0xFF
   03DC 00                 1043 	.db #0x00
   03DD FF                 1044 	.db #0xFF
   03DE FF                 1045 	.db #0xFF
   03DF FF                 1046 	.db #0xFF
   03E0 01                 1047 	.db #0x01
   03E1 FF                 1048 	.db #0xFF
   03E2 01                 1049 	.db #0x01
   03E3 FF                 1050 	.db #0xFF
   03E4 01                 1051 	.db #0x01
   03E5 FF                 1052 	.db #0xFF
   03E6 01                 1053 	.db #0x01
   03E7 FF                 1054 	.db #0xFF
   03E8 01                 1055 	.db #0x01
   03E9 FF                 1056 	.db #0xFF
   03EA 01                 1057 	.db #0x01
   03EB 23                 1058 	.db #0x23
   03EC 01                 1059 	.db #0x01
   03ED BB                 1060 	.db #0xBB
   03EE 01                 1061 	.db #0x01
   03EF 23                 1062 	.db #0x23
   03F0 01                 1063 	.db #0x01
   03F1 AF                 1064 	.db #0xAF
   03F2 01                 1065 	.db #0x01
   03F3 23                 1066 	.db #0x23
   03F4 01                 1067 	.db #0x01
   03F5 FF                 1068 	.db #0xFF
   03F6 01                 1069 	.db #0x01
   03F7 FF                 1070 	.db #0xFF
   03F8 01                 1071 	.db #0x01
   03F9 FF                 1072 	.db #0xFF
   03FA 01                 1073 	.db #0x01
   03FB FF                 1074 	.db #0xFF
   03FC 01                 1075 	.db #0x01
   03FD FF                 1076 	.db #0xFF
   03FE FF                 1077 	.db #0xFF
   03FF FF                 1078 	.db #0xFF
   0400 00                 1079 	.db #0x00
   0401 FF                 1080 	.db #0xFF
   0402 00                 1081 	.db #0x00
   0403 FA                 1082 	.db #0xFA
   0404 00                 1083 	.db #0x00
   0405 FA                 1084 	.db #0xFA
   0406 00                 1085 	.db #0x00
   0407 FA                 1086 	.db #0xFA
   0408 00                 1087 	.db #0x00
   0409 FA                 1088 	.db #0xFA
   040A 00                 1089 	.db #0x00
   040B FA                 1090 	.db #0xFA
   040C 00                 1091 	.db #0x00
   040D FF                 1092 	.db #0xFF
   040E 00                 1093 	.db #0x00
   040F C4                 1094 	.db #0xC4
   0410 00                 1095 	.db #0x00
   0411 F5                 1096 	.db #0xF5
   0412 00                 1097 	.db #0x00
   0413 E4                 1098 	.db #0xE4
   0414 00                 1099 	.db #0x00
   0415 F5                 1100 	.db #0xF5
   0416 00                 1101 	.db #0x00
   0417 C4                 1102 	.db #0xC4
   0418 00                 1103 	.db #0x00
   0419 FF                 1104 	.db #0xFF
   041A 00                 1105 	.db #0x00
   041B FF                 1106 	.db #0xFF
   041C 00                 1107 	.db #0x00
   041D FF                 1108 	.db #0xFF
   041E FF                 1109 	.db #0xFF
   041F FF                 1110 	.db #0xFF
   0420 01                 1111 	.db #0x01
   0421 FF                 1112 	.db #0xFF
   0422 01                 1113 	.db #0x01
   0423 3F                 1114 	.db #0x3F
   0424 01                 1115 	.db #0x01
   0425 FF                 1116 	.db #0xFF
   0426 01                 1117 	.db #0x01
   0427 3F                 1118 	.db #0x3F
   0428 01                 1119 	.db #0x01
   0429 BF                 1120 	.db #0xBF
   042A 01                 1121 	.db #0x01
   042B 3F                 1122 	.db #0x3F
   042C 01                 1123 	.db #0x01
   042D FF                 1124 	.db #0xFF
   042E 01                 1125 	.db #0x01
   042F 57                 1126 	.db #0x57
   0430 01                 1127 	.db #0x01
   0431 57                 1128 	.db #0x57
   0432 01                 1129 	.db #0x01
   0433 47                 1130 	.db #0x47
   0434 01                 1131 	.db #0x01
   0435 77                 1132 	.db #0x77
   0436 01                 1133 	.db #0x01
   0437 77                 1134 	.db #0x77
   0438 01                 1135 	.db #0x01
   0439 FF                 1136 	.db #0xFF
   043A 01                 1137 	.db #0x01
   043B FF                 1138 	.db #0xFF
   043C 01                 1139 	.db #0x01
   043D FF                 1140 	.db #0xFF
   043E FF                 1141 	.db #0xFF
   043F FF                 1142 	.db #0xFF
   0440 00                 1143 	.db #0x00
   0441 FF                 1144 	.db #0xFF
   0442 00                 1145 	.db #0x00
   0443 F1                 1146 	.db #0xF1
   0444 00                 1147 	.db #0x00
   0445 FD                 1148 	.db #0xFD
   0446 00                 1149 	.db #0x00
   0447 F9                 1150 	.db #0xF9
   0448 00                 1151 	.db #0x00
   0449 FD                 1152 	.db #0xFD
   044A 00                 1153 	.db #0x00
   044B F1                 1154 	.db #0xF1
   044C 00                 1155 	.db #0x00
   044D FF                 1156 	.db #0xFF
   044E 00                 1157 	.db #0x00
   044F C4                 1158 	.db #0xC4
   0450 00                 1159 	.db #0x00
   0451 F5                 1160 	.db #0xF5
   0452 00                 1161 	.db #0x00
   0453 F4                 1162 	.db #0xF4
   0454 00                 1163 	.db #0x00
   0455 F5                 1164 	.db #0xF5
   0456 00                 1165 	.db #0x00
   0457 F4                 1166 	.db #0xF4
   0458 00                 1167 	.db #0x00
   0459 FF                 1168 	.db #0xFF
   045A 00                 1169 	.db #0x00
   045B FF                 1170 	.db #0xFF
   045C 00                 1171 	.db #0x00
   045D FF                 1172 	.db #0xFF
   045E FF                 1173 	.db #0xFF
   045F FF                 1174 	.db #0xFF
   0460 01                 1175 	.db #0x01
   0461 FF                 1176 	.db #0xFF
   0462 01                 1177 	.db #0x01
   0463 1F                 1178 	.db #0x1F
   0464 01                 1179 	.db #0x01
   0465 DF                 1180 	.db #0xDF
   0466 01                 1181 	.db #0x01
   0467 1F                 1182 	.db #0x1F
   0468 01                 1183 	.db #0x01
   0469 7F                 1184 	.db #0x7F
   046A 01                 1185 	.db #0x01
   046B 1F                 1186 	.db #0x1F
   046C 01                 1187 	.db #0x01
   046D FF                 1188 	.db #0xFF
   046E 01                 1189 	.db #0x01
   046F 47                 1190 	.db #0x47
   0470 01                 1191 	.db #0x01
   0471 D7                 1192 	.db #0xD7
   0472 01                 1193 	.db #0x01
   0473 47                 1194 	.db #0x47
   0474 01                 1195 	.db #0x01
   0475 57                 1196 	.db #0x57
   0476 01                 1197 	.db #0x01
   0477 47                 1198 	.db #0x47
   0478 01                 1199 	.db #0x01
   0479 FF                 1200 	.db #0xFF
   047A 01                 1201 	.db #0x01
   047B FF                 1202 	.db #0xFF
   047C 01                 1203 	.db #0x01
   047D FF                 1204 	.db #0xFF
   047E FF                 1205 	.db #0xFF
   047F FF                 1206 	.db #0xFF
   0480 FF                 1207 	.db #0xFF
   0481 FF                 1208 	.db #0xFF
   0482 F1                 1209 	.db #0xF1
   0483 F1                 1210 	.db #0xF1
   0484 F7                 1211 	.db #0xF7
   0485 F7                 1212 	.db #0xF7
   0486 F1                 1213 	.db #0xF1
   0487 F1                 1214 	.db #0xF1
   0488 F5                 1215 	.db #0xF5
   0489 F5                 1216 	.db #0xF5
   048A F1                 1217 	.db #0xF1
   048B F1                 1218 	.db #0xF1
   048C FF                 1219 	.db #0xFF
   048D FF                 1220 	.db #0xFF
   048E C4                 1221 	.db #0xC4
   048F C4                 1222 	.db #0xC4
   0490 DF                 1223 	.db #0xDF
   0491 DF                 1224 	.db #0xDF
   0492 C6                 1225 	.db #0xC6
   0493 C6                 1226 	.db #0xC6
   0494 F7                 1227 	.db #0xF7
   0495 F7                 1228 	.db #0xF7
   0496 C4                 1229 	.db #0xC4
   0497 C4                 1230 	.db #0xC4
   0498 FF                 1231 	.db #0xFF
   0499 FF                 1232 	.db #0xFF
   049A FF                 1233 	.db #0xFF
   049B FF                 1234 	.db #0xFF
   049C FF                 1235 	.db #0xFF
   049D FF                 1236 	.db #0xFF
   049E 00                 1237 	.db #0x00
   049F FF                 1238 	.db #0xFF
   04A0 FE                 1239 	.db #0xFE
   04A1 FF                 1240 	.db #0xFF
   04A2 1E                 1241 	.db #0x1E
   04A3 1F                 1242 	.db #0x1F
   04A4 7E                 1243 	.db #0x7E
   04A5 7F                 1244 	.db #0x7F
   04A6 1E                 1245 	.db #0x1E
   04A7 1F                 1246 	.db #0x1F
   04A8 DE                 1247 	.db #0xDE
   04A9 DF                 1248 	.db #0xDF
   04AA 1E                 1249 	.db #0x1E
   04AB 1F                 1250 	.db #0x1F
   04AC FE                 1251 	.db #0xFE
   04AD FF                 1252 	.db #0xFF
   04AE 46                 1253 	.db #0x46
   04AF 47                 1254 	.db #0x47
   04B0 5E                 1255 	.db #0x5E
   04B1 5F                 1256 	.db #0x5F
   04B2 46                 1257 	.db #0x46
   04B3 47                 1258 	.db #0x47
   04B4 56                 1259 	.db #0x56
   04B5 57                 1260 	.db #0x57
   04B6 46                 1261 	.db #0x46
   04B7 47                 1262 	.db #0x47
   04B8 FE                 1263 	.db #0xFE
   04B9 FF                 1264 	.db #0xFF
   04BA FE                 1265 	.db #0xFE
   04BB FF                 1266 	.db #0xFF
   04BC FE                 1267 	.db #0xFE
   04BD FF                 1268 	.db #0xFF
   04BE 00                 1269 	.db #0x00
   04BF FF                 1270 	.db #0xFF
   04C0 FF                 1271 	.db #0xFF
   04C1 FF                 1272 	.db #0xFF
   04C2 F4                 1273 	.db #0xF4
   04C3 F4                 1274 	.db #0xF4
   04C4 F7                 1275 	.db #0xF7
   04C5 F7                 1276 	.db #0xF7
   04C6 F6                 1277 	.db #0xF6
   04C7 F6                 1278 	.db #0xF6
   04C8 F7                 1279 	.db #0xF7
   04C9 F7                 1280 	.db #0xF7
   04CA F4                 1281 	.db #0xF4
   04CB F4                 1282 	.db #0xF4
   04CC FF                 1283 	.db #0xFF
   04CD FF                 1284 	.db #0xFF
   04CE C4                 1285 	.db #0xC4
   04CF C4                 1286 	.db #0xC4
   04D0 D7                 1287 	.db #0xD7
   04D1 D7                 1288 	.db #0xD7
   04D2 D7                 1289 	.db #0xD7
   04D3 D7                 1290 	.db #0xD7
   04D4 D7                 1291 	.db #0xD7
   04D5 D7                 1292 	.db #0xD7
   04D6 C7                 1293 	.db #0xC7
   04D7 C7                 1294 	.db #0xC7
   04D8 FF                 1295 	.db #0xFF
   04D9 FF                 1296 	.db #0xFF
   04DA FF                 1297 	.db #0xFF
   04DB FF                 1298 	.db #0xFF
   04DC FF                 1299 	.db #0xFF
   04DD FF                 1300 	.db #0xFF
   04DE 00                 1301 	.db #0x00
   04DF FF                 1302 	.db #0xFF
   04E0 FE                 1303 	.db #0xFE
   04E1 FF                 1304 	.db #0xFF
   04E2 5E                 1305 	.db #0x5E
   04E3 5F                 1306 	.db #0x5F
   04E4 5E                 1307 	.db #0x5E
   04E5 5F                 1308 	.db #0x5F
   04E6 5E                 1309 	.db #0x5E
   04E7 5F                 1310 	.db #0x5F
   04E8 5E                 1311 	.db #0x5E
   04E9 5F                 1312 	.db #0x5F
   04EA 5E                 1313 	.db #0x5E
   04EB 5F                 1314 	.db #0x5F
   04EC FE                 1315 	.db #0xFE
   04ED FF                 1316 	.db #0xFF
   04EE 46                 1317 	.db #0x46
   04EF 47                 1318 	.db #0x47
   04F0 76                 1319 	.db #0x76
   04F1 77                 1320 	.db #0x77
   04F2 46                 1321 	.db #0x46
   04F3 47                 1322 	.db #0x47
   04F4 5E                 1323 	.db #0x5E
   04F5 5F                 1324 	.db #0x5F
   04F6 46                 1325 	.db #0x46
   04F7 47                 1326 	.db #0x47
   04F8 FE                 1327 	.db #0xFE
   04F9 FF                 1328 	.db #0xFF
   04FA FE                 1329 	.db #0xFE
   04FB FF                 1330 	.db #0xFF
   04FC FE                 1331 	.db #0xFE
   04FD FF                 1332 	.db #0xFF
   04FE 00                 1333 	.db #0x00
   04FF FF                 1334 	.db #0xFF
   0500 FF                 1335 	.db #0xFF
   0501 00                 1336 	.db #0x00
   0502 FF                 1337 	.db #0xFF
   0503 3C                 1338 	.db #0x3C
   0504 FF                 1339 	.db #0xFF
   0505 24                 1340 	.db #0x24
   0506 FF                 1341 	.db #0xFF
   0507 24                 1342 	.db #0x24
   0508 FF                 1343 	.db #0xFF
   0509 24                 1344 	.db #0x24
   050A FF                 1345 	.db #0xFF
   050B 3C                 1346 	.db #0x3C
   050C FF                 1347 	.db #0xFF
   050D 00                 1348 	.db #0x00
   050E FF                 1349 	.db #0xFF
   050F 00                 1350 	.db #0x00
   0510 FF                 1351 	.db #0xFF
   0511 00                 1352 	.db #0x00
   0512 FF                 1353 	.db #0xFF
   0513 08                 1354 	.db #0x08
   0514 FF                 1355 	.db #0xFF
   0515 08                 1356 	.db #0x08
   0516 FF                 1357 	.db #0xFF
   0517 08                 1358 	.db #0x08
   0518 FF                 1359 	.db #0xFF
   0519 08                 1360 	.db #0x08
   051A FF                 1361 	.db #0xFF
   051B 08                 1362 	.db #0x08
   051C FF                 1363 	.db #0xFF
   051D 00                 1364 	.db #0x00
   051E FF                 1365 	.db #0xFF
   051F 00                 1366 	.db #0x00
   0520 FF                 1367 	.db #0xFF
   0521 00                 1368 	.db #0x00
   0522 FF                 1369 	.db #0xFF
   0523 3C                 1370 	.db #0x3C
   0524 FF                 1371 	.db #0xFF
   0525 04                 1372 	.db #0x04
   0526 FF                 1373 	.db #0xFF
   0527 3C                 1374 	.db #0x3C
   0528 FF                 1375 	.db #0xFF
   0529 20                 1376 	.db #0x20
   052A FF                 1377 	.db #0xFF
   052B 3C                 1378 	.db #0x3C
   052C FF                 1379 	.db #0xFF
   052D 00                 1380 	.db #0x00
   052E FF                 1381 	.db #0xFF
   052F 00                 1382 	.db #0x00
   0530 FF                 1383 	.db #0xFF
   0531 00                 1384 	.db #0x00
   0532 FF                 1385 	.db #0xFF
   0533 3C                 1386 	.db #0x3C
   0534 FF                 1387 	.db #0xFF
   0535 04                 1388 	.db #0x04
   0536 FF                 1389 	.db #0xFF
   0537 1C                 1390 	.db #0x1C
   0538 FF                 1391 	.db #0xFF
   0539 04                 1392 	.db #0x04
   053A FF                 1393 	.db #0xFF
   053B 3C                 1394 	.db #0x3C
   053C FF                 1395 	.db #0xFF
   053D 00                 1396 	.db #0x00
   053E FF                 1397 	.db #0xFF
   053F 00                 1398 	.db #0x00
   0540 FF                 1399 	.db #0xFF
   0541 00                 1400 	.db #0x00
   0542 FF                 1401 	.db #0xFF
   0543 24                 1402 	.db #0x24
   0544 FF                 1403 	.db #0xFF
   0545 24                 1404 	.db #0x24
   0546 FF                 1405 	.db #0xFF
   0547 3C                 1406 	.db #0x3C
   0548 FF                 1407 	.db #0xFF
   0549 04                 1408 	.db #0x04
   054A FF                 1409 	.db #0xFF
   054B 04                 1410 	.db #0x04
   054C FF                 1411 	.db #0xFF
   054D 00                 1412 	.db #0x00
   054E FF                 1413 	.db #0xFF
   054F 00                 1414 	.db #0x00
   0550 FF                 1415 	.db #0xFF
   0551 00                 1416 	.db #0x00
   0552 FF                 1417 	.db #0xFF
   0553 3C                 1418 	.db #0x3C
   0554 FF                 1419 	.db #0xFF
   0555 20                 1420 	.db #0x20
   0556 FF                 1421 	.db #0xFF
   0557 3C                 1422 	.db #0x3C
   0558 FF                 1423 	.db #0xFF
   0559 04                 1424 	.db #0x04
   055A FF                 1425 	.db #0xFF
   055B 3C                 1426 	.db #0x3C
   055C FF                 1427 	.db #0xFF
   055D 00                 1428 	.db #0x00
   055E FF                 1429 	.db #0xFF
   055F 00                 1430 	.db #0x00
   0560 FF                 1431 	.db #0xFF
   0561 00                 1432 	.db #0x00
   0562 FF                 1433 	.db #0xFF
   0563 3C                 1434 	.db #0x3C
   0564 FF                 1435 	.db #0xFF
   0565 20                 1436 	.db #0x20
   0566 FF                 1437 	.db #0xFF
   0567 3C                 1438 	.db #0x3C
   0568 FF                 1439 	.db #0xFF
   0569 24                 1440 	.db #0x24
   056A FF                 1441 	.db #0xFF
   056B 3C                 1442 	.db #0x3C
   056C FF                 1443 	.db #0xFF
   056D 00                 1444 	.db #0x00
   056E FF                 1445 	.db #0xFF
   056F 00                 1446 	.db #0x00
   0570 FF                 1447 	.db #0xFF
   0571 00                 1448 	.db #0x00
   0572 FF                 1449 	.db #0xFF
   0573 3C                 1450 	.db #0x3C
   0574 FF                 1451 	.db #0xFF
   0575 04                 1452 	.db #0x04
   0576 FF                 1453 	.db #0xFF
   0577 08                 1454 	.db #0x08
   0578 FF                 1455 	.db #0xFF
   0579 10                 1456 	.db #0x10
   057A FF                 1457 	.db #0xFF
   057B 10                 1458 	.db #0x10
   057C FF                 1459 	.db #0xFF
   057D 00                 1460 	.db #0x00
   057E FF                 1461 	.db #0xFF
   057F 00                 1462 	.db #0x00
   0580 FF                 1463 	.db #0xFF
   0581 00                 1464 	.db #0x00
   0582 FF                 1465 	.db #0xFF
   0583 3C                 1466 	.db #0x3C
   0584 FF                 1467 	.db #0xFF
   0585 24                 1468 	.db #0x24
   0586 FF                 1469 	.db #0xFF
   0587 3C                 1470 	.db #0x3C
   0588 FF                 1471 	.db #0xFF
   0589 24                 1472 	.db #0x24
   058A FF                 1473 	.db #0xFF
   058B 3C                 1474 	.db #0x3C
   058C FF                 1475 	.db #0xFF
   058D 00                 1476 	.db #0x00
   058E FF                 1477 	.db #0xFF
   058F 00                 1478 	.db #0x00
   0590 FF                 1479 	.db #0xFF
   0591 00                 1480 	.db #0x00
   0592 FF                 1481 	.db #0xFF
   0593 3C                 1482 	.db #0x3C
   0594 FF                 1483 	.db #0xFF
   0595 24                 1484 	.db #0x24
   0596 FF                 1485 	.db #0xFF
   0597 3C                 1486 	.db #0x3C
   0598 FF                 1487 	.db #0xFF
   0599 04                 1488 	.db #0x04
   059A FF                 1489 	.db #0xFF
   059B 3C                 1490 	.db #0x3C
   059C FF                 1491 	.db #0xFF
   059D 00                 1492 	.db #0x00
   059E FF                 1493 	.db #0xFF
   059F 00                 1494 	.db #0x00
   05A0 00                 1495 	.db #0x00
   05A1 00                 1496 	.db #0x00
   05A2 00                 1497 	.db #0x00
   05A3 00                 1498 	.db #0x00
   05A4 00                 1499 	.db #0x00
   05A5 00                 1500 	.db #0x00
   05A6 00                 1501 	.db #0x00
   05A7 00                 1502 	.db #0x00
   05A8 00                 1503 	.db #0x00
   05A9 00                 1504 	.db #0x00
   05AA 00                 1505 	.db #0x00
   05AB 00                 1506 	.db #0x00
   05AC 00                 1507 	.db #0x00
   05AD 00                 1508 	.db #0x00
   05AE FF                 1509 	.db #0xFF
   05AF FF                 1510 	.db #0xFF
   05B0 01                 1511 	.db #0x01
   05B1 01                 1512 	.db #0x01
   05B2 01                 1513 	.db #0x01
   05B3 01                 1514 	.db #0x01
   05B4 01                 1515 	.db #0x01
   05B5 01                 1516 	.db #0x01
   05B6 01                 1517 	.db #0x01
   05B7 01                 1518 	.db #0x01
   05B8 01                 1519 	.db #0x01
   05B9 01                 1520 	.db #0x01
   05BA 01                 1521 	.db #0x01
   05BB 01                 1522 	.db #0x01
   05BC 01                 1523 	.db #0x01
   05BD 01                 1524 	.db #0x01
   05BE 01                 1525 	.db #0x01
   05BF 01                 1526 	.db #0x01
   05C0 00                 1527 	.db #0x00
   05C1 00                 1528 	.db #0x00
   05C2 00                 1529 	.db #0x00
   05C3 00                 1530 	.db #0x00
   05C4 00                 1531 	.db #0x00
   05C5 00                 1532 	.db #0x00
   05C6 00                 1533 	.db #0x00
   05C7 00                 1534 	.db #0x00
   05C8 00                 1535 	.db #0x00
   05C9 00                 1536 	.db #0x00
   05CA 00                 1537 	.db #0x00
   05CB 00                 1538 	.db #0x00
   05CC 00                 1539 	.db #0x00
   05CD 00                 1540 	.db #0x00
   05CE 00                 1541 	.db #0x00
   05CF 00                 1542 	.db #0x00
   05D0 00                 1543 	.db #0x00
   05D1 00                 1544 	.db #0x00
   05D2 00                 1545 	.db #0x00
   05D3 00                 1546 	.db #0x00
   05D4 00                 1547 	.db #0x00
   05D5 00                 1548 	.db #0x00
   05D6 00                 1549 	.db #0x00
   05D7 00                 1550 	.db #0x00
   05D8 00                 1551 	.db #0x00
   05D9 00                 1552 	.db #0x00
   05DA 00                 1553 	.db #0x00
   05DB 00                 1554 	.db #0x00
   05DC 00                 1555 	.db #0x00
   05DD 00                 1556 	.db #0x00
   05DE FF                 1557 	.db #0xFF
   05DF FF                 1558 	.db #0xFF
   05E0 01                 1559 	.db #0x01
   05E1 01                 1560 	.db #0x01
   05E2 01                 1561 	.db #0x01
   05E3 01                 1562 	.db #0x01
   05E4 01                 1563 	.db #0x01
   05E5 01                 1564 	.db #0x01
   05E6 01                 1565 	.db #0x01
   05E7 01                 1566 	.db #0x01
   05E8 01                 1567 	.db #0x01
   05E9 01                 1568 	.db #0x01
   05EA 01                 1569 	.db #0x01
   05EB 01                 1570 	.db #0x01
   05EC 01                 1571 	.db #0x01
   05ED 01                 1572 	.db #0x01
   05EE 01                 1573 	.db #0x01
   05EF 01                 1574 	.db #0x01
   05F0 01                 1575 	.db #0x01
   05F1 01                 1576 	.db #0x01
   05F2 01                 1577 	.db #0x01
   05F3 01                 1578 	.db #0x01
   05F4 01                 1579 	.db #0x01
   05F5 01                 1580 	.db #0x01
   05F6 01                 1581 	.db #0x01
   05F7 01                 1582 	.db #0x01
   05F8 01                 1583 	.db #0x01
   05F9 01                 1584 	.db #0x01
   05FA 01                 1585 	.db #0x01
   05FB 01                 1586 	.db #0x01
   05FC 01                 1587 	.db #0x01
   05FD 01                 1588 	.db #0x01
   05FE FF                 1589 	.db #0xFF
   05FF FF                 1590 	.db #0xFF
   0600 00                 1591 	.db #0x00
   0601 00                 1592 	.db #0x00
   0602 00                 1593 	.db #0x00
   0603 00                 1594 	.db #0x00
   0604 00                 1595 	.db #0x00
   0605 00                 1596 	.db #0x00
   0606 00                 1597 	.db #0x00
   0607 00                 1598 	.db #0x00
   0608 00                 1599 	.db #0x00
   0609 00                 1600 	.db #0x00
   060A 00                 1601 	.db #0x00
   060B 00                 1602 	.db #0x00
   060C 00                 1603 	.db #0x00
   060D 00                 1604 	.db #0x00
   060E 00                 1605 	.db #0x00
   060F 00                 1606 	.db #0x00
   0610 78                 1607 	.db #0x78
   0611 78                 1608 	.db #0x78
   0612 84                 1609 	.db #0x84
   0613 84                 1610 	.db #0x84
   0614 84                 1611 	.db #0x84
   0615 84                 1612 	.db #0x84
   0616 FC                 1613 	.db #0xFC
   0617 FC                 1614 	.db #0xFC
   0618 84                 1615 	.db #0x84
   0619 84                 1616 	.db #0x84
   061A 84                 1617 	.db #0x84
   061B 84                 1618 	.db #0x84
   061C 84                 1619 	.db #0x84
   061D 84                 1620 	.db #0x84
   061E 00                 1621 	.db #0x00
   061F 00                 1622 	.db #0x00
   0620 F8                 1623 	.db #0xF8
   0621 F8                 1624 	.db #0xF8
   0622 84                 1625 	.db #0x84
   0623 84                 1626 	.db #0x84
   0624 84                 1627 	.db #0x84
   0625 84                 1628 	.db #0x84
   0626 F8                 1629 	.db #0xF8
   0627 F8                 1630 	.db #0xF8
   0628 84                 1631 	.db #0x84
   0629 84                 1632 	.db #0x84
   062A 84                 1633 	.db #0x84
   062B 84                 1634 	.db #0x84
   062C F8                 1635 	.db #0xF8
   062D F8                 1636 	.db #0xF8
   062E 00                 1637 	.db #0x00
   062F 00                 1638 	.db #0x00
   0630 78                 1639 	.db #0x78
   0631 78                 1640 	.db #0x78
   0632 80                 1641 	.db #0x80
   0633 80                 1642 	.db #0x80
   0634 80                 1643 	.db #0x80
   0635 80                 1644 	.db #0x80
   0636 80                 1645 	.db #0x80
   0637 80                 1646 	.db #0x80
   0638 80                 1647 	.db #0x80
   0639 80                 1648 	.db #0x80
   063A 80                 1649 	.db #0x80
   063B 80                 1650 	.db #0x80
   063C 78                 1651 	.db #0x78
   063D 78                 1652 	.db #0x78
   063E 00                 1653 	.db #0x00
   063F 00                 1654 	.db #0x00
   0640 F8                 1655 	.db #0xF8
   0641 F8                 1656 	.db #0xF8
   0642 84                 1657 	.db #0x84
   0643 84                 1658 	.db #0x84
   0644 84                 1659 	.db #0x84
   0645 84                 1660 	.db #0x84
   0646 84                 1661 	.db #0x84
   0647 84                 1662 	.db #0x84
   0648 84                 1663 	.db #0x84
   0649 84                 1664 	.db #0x84
   064A 84                 1665 	.db #0x84
   064B 84                 1666 	.db #0x84
   064C F8                 1667 	.db #0xF8
   064D F8                 1668 	.db #0xF8
   064E 00                 1669 	.db #0x00
   064F 00                 1670 	.db #0x00
   0650 FC                 1671 	.db #0xFC
   0651 FC                 1672 	.db #0xFC
   0652 80                 1673 	.db #0x80
   0653 80                 1674 	.db #0x80
   0654 80                 1675 	.db #0x80
   0655 80                 1676 	.db #0x80
   0656 F0                 1677 	.db #0xF0
   0657 F0                 1678 	.db #0xF0
   0658 80                 1679 	.db #0x80
   0659 80                 1680 	.db #0x80
   065A 80                 1681 	.db #0x80
   065B 80                 1682 	.db #0x80
   065C FC                 1683 	.db #0xFC
   065D FC                 1684 	.db #0xFC
   065E 00                 1685 	.db #0x00
   065F 00                 1686 	.db #0x00
   0660 FC                 1687 	.db #0xFC
   0661 FC                 1688 	.db #0xFC
   0662 80                 1689 	.db #0x80
   0663 80                 1690 	.db #0x80
   0664 80                 1691 	.db #0x80
   0665 80                 1692 	.db #0x80
   0666 F0                 1693 	.db #0xF0
   0667 F0                 1694 	.db #0xF0
   0668 80                 1695 	.db #0x80
   0669 80                 1696 	.db #0x80
   066A 80                 1697 	.db #0x80
   066B 80                 1698 	.db #0x80
   066C 80                 1699 	.db #0x80
   066D 80                 1700 	.db #0x80
   066E 00                 1701 	.db #0x00
   066F 00                 1702 	.db #0x00
   0670 7C                 1703 	.db #0x7C
   0671 7C                 1704 	.db #0x7C
   0672 80                 1705 	.db #0x80
   0673 80                 1706 	.db #0x80
   0674 80                 1707 	.db #0x80
   0675 80                 1708 	.db #0x80
   0676 80                 1709 	.db #0x80
   0677 80                 1710 	.db #0x80
   0678 98                 1711 	.db #0x98
   0679 98                 1712 	.db #0x98
   067A 84                 1713 	.db #0x84
   067B 84                 1714 	.db #0x84
   067C 7C                 1715 	.db #0x7C
   067D 7C                 1716 	.db #0x7C
   067E 00                 1717 	.db #0x00
   067F 00                 1718 	.db #0x00
   0680 84                 1719 	.db #0x84
   0681 84                 1720 	.db #0x84
   0682 84                 1721 	.db #0x84
   0683 84                 1722 	.db #0x84
   0684 84                 1723 	.db #0x84
   0685 84                 1724 	.db #0x84
   0686 FC                 1725 	.db #0xFC
   0687 FC                 1726 	.db #0xFC
   0688 84                 1727 	.db #0x84
   0689 84                 1728 	.db #0x84
   068A 84                 1729 	.db #0x84
   068B 84                 1730 	.db #0x84
   068C 84                 1731 	.db #0x84
   068D 84                 1732 	.db #0x84
   068E 00                 1733 	.db #0x00
   068F 00                 1734 	.db #0x00
   0690 F8                 1735 	.db #0xF8
   0691 F8                 1736 	.db #0xF8
   0692 20                 1737 	.db #0x20
   0693 20                 1738 	.db #0x20
   0694 20                 1739 	.db #0x20
   0695 20                 1740 	.db #0x20
   0696 20                 1741 	.db #0x20
   0697 20                 1742 	.db #0x20
   0698 20                 1743 	.db #0x20
   0699 20                 1744 	.db #0x20
   069A 20                 1745 	.db #0x20
   069B 20                 1746 	.db #0x20
   069C F8                 1747 	.db #0xF8
   069D F8                 1748 	.db #0xF8
   069E 00                 1749 	.db #0x00
   069F 00                 1750 	.db #0x00
   06A0 7C                 1751 	.db #0x7C
   06A1 7C                 1752 	.db #0x7C
   06A2 10                 1753 	.db #0x10
   06A3 10                 1754 	.db #0x10
   06A4 10                 1755 	.db #0x10
   06A5 10                 1756 	.db #0x10
   06A6 10                 1757 	.db #0x10
   06A7 10                 1758 	.db #0x10
   06A8 90                 1759 	.db #0x90
   06A9 90                 1760 	.db #0x90
   06AA 90                 1761 	.db #0x90
   06AB 90                 1762 	.db #0x90
   06AC 60                 1763 	.db #0x60
   06AD 60                 1764 	.db #0x60
   06AE 00                 1765 	.db #0x00
   06AF 00                 1766 	.db #0x00
   06B0 88                 1767 	.db #0x88
   06B1 88                 1768 	.db #0x88
   06B2 90                 1769 	.db #0x90
   06B3 90                 1770 	.db #0x90
   06B4 A0                 1771 	.db #0xA0
   06B5 A0                 1772 	.db #0xA0
   06B6 C0                 1773 	.db #0xC0
   06B7 C0                 1774 	.db #0xC0
   06B8 A0                 1775 	.db #0xA0
   06B9 A0                 1776 	.db #0xA0
   06BA 90                 1777 	.db #0x90
   06BB 90                 1778 	.db #0x90
   06BC 88                 1779 	.db #0x88
   06BD 88                 1780 	.db #0x88
   06BE 00                 1781 	.db #0x00
   06BF 00                 1782 	.db #0x00
   06C0 80                 1783 	.db #0x80
   06C1 80                 1784 	.db #0x80
   06C2 80                 1785 	.db #0x80
   06C3 80                 1786 	.db #0x80
   06C4 80                 1787 	.db #0x80
   06C5 80                 1788 	.db #0x80
   06C6 80                 1789 	.db #0x80
   06C7 80                 1790 	.db #0x80
   06C8 80                 1791 	.db #0x80
   06C9 80                 1792 	.db #0x80
   06CA 80                 1793 	.db #0x80
   06CB 80                 1794 	.db #0x80
   06CC F8                 1795 	.db #0xF8
   06CD F8                 1796 	.db #0xF8
   06CE 00                 1797 	.db #0x00
   06CF 00                 1798 	.db #0x00
   06D0 84                 1799 	.db #0x84
   06D1 84                 1800 	.db #0x84
   06D2 CC                 1801 	.db #0xCC
   06D3 CC                 1802 	.db #0xCC
   06D4 B4                 1803 	.db #0xB4
   06D5 B4                 1804 	.db #0xB4
   06D6 84                 1805 	.db #0x84
   06D7 84                 1806 	.db #0x84
   06D8 84                 1807 	.db #0x84
   06D9 84                 1808 	.db #0x84
   06DA 84                 1809 	.db #0x84
   06DB 84                 1810 	.db #0x84
   06DC 84                 1811 	.db #0x84
   06DD 84                 1812 	.db #0x84
   06DE 00                 1813 	.db #0x00
   06DF 00                 1814 	.db #0x00
   06E0 84                 1815 	.db #0x84
   06E1 84                 1816 	.db #0x84
   06E2 C4                 1817 	.db #0xC4
   06E3 C4                 1818 	.db #0xC4
   06E4 A4                 1819 	.db #0xA4
   06E5 A4                 1820 	.db #0xA4
   06E6 94                 1821 	.db #0x94
   06E7 94                 1822 	.db #0x94
   06E8 94                 1823 	.db #0x94
   06E9 94                 1824 	.db #0x94
   06EA 8C                 1825 	.db #0x8C
   06EB 8C                 1826 	.db #0x8C
   06EC 84                 1827 	.db #0x84
   06ED 84                 1828 	.db #0x84
   06EE 00                 1829 	.db #0x00
   06EF 00                 1830 	.db #0x00
   06F0 78                 1831 	.db #0x78
   06F1 78                 1832 	.db #0x78
   06F2 84                 1833 	.db #0x84
   06F3 84                 1834 	.db #0x84
   06F4 84                 1835 	.db #0x84
   06F5 84                 1836 	.db #0x84
   06F6 84                 1837 	.db #0x84
   06F7 84                 1838 	.db #0x84
   06F8 84                 1839 	.db #0x84
   06F9 84                 1840 	.db #0x84
   06FA 84                 1841 	.db #0x84
   06FB 84                 1842 	.db #0x84
   06FC 78                 1843 	.db #0x78
   06FD 78                 1844 	.db #0x78
   06FE 00                 1845 	.db #0x00
   06FF 00                 1846 	.db #0x00
   0700 F8                 1847 	.db #0xF8
   0701 F8                 1848 	.db #0xF8
   0702 84                 1849 	.db #0x84
   0703 84                 1850 	.db #0x84
   0704 84                 1851 	.db #0x84
   0705 84                 1852 	.db #0x84
   0706 F8                 1853 	.db #0xF8
   0707 F8                 1854 	.db #0xF8
   0708 80                 1855 	.db #0x80
   0709 80                 1856 	.db #0x80
   070A 80                 1857 	.db #0x80
   070B 80                 1858 	.db #0x80
   070C 80                 1859 	.db #0x80
   070D 80                 1860 	.db #0x80
   070E 00                 1861 	.db #0x00
   070F 00                 1862 	.db #0x00
   0710 78                 1863 	.db #0x78
   0711 78                 1864 	.db #0x78
   0712 84                 1865 	.db #0x84
   0713 84                 1866 	.db #0x84
   0714 84                 1867 	.db #0x84
   0715 84                 1868 	.db #0x84
   0716 94                 1869 	.db #0x94
   0717 94                 1870 	.db #0x94
   0718 8C                 1871 	.db #0x8C
   0719 8C                 1872 	.db #0x8C
   071A 78                 1873 	.db #0x78
   071B 78                 1874 	.db #0x78
   071C 04                 1875 	.db #0x04
   071D 04                 1876 	.db #0x04
   071E 00                 1877 	.db #0x00
   071F 00                 1878 	.db #0x00
   0720 F8                 1879 	.db #0xF8
   0721 F8                 1880 	.db #0xF8
   0722 84                 1881 	.db #0x84
   0723 84                 1882 	.db #0x84
   0724 84                 1883 	.db #0x84
   0725 84                 1884 	.db #0x84
   0726 F8                 1885 	.db #0xF8
   0727 F8                 1886 	.db #0xF8
   0728 90                 1887 	.db #0x90
   0729 90                 1888 	.db #0x90
   072A 88                 1889 	.db #0x88
   072B 88                 1890 	.db #0x88
   072C 84                 1891 	.db #0x84
   072D 84                 1892 	.db #0x84
   072E 00                 1893 	.db #0x00
   072F 00                 1894 	.db #0x00
   0730 7C                 1895 	.db #0x7C
   0731 7C                 1896 	.db #0x7C
   0732 80                 1897 	.db #0x80
   0733 80                 1898 	.db #0x80
   0734 80                 1899 	.db #0x80
   0735 80                 1900 	.db #0x80
   0736 78                 1901 	.db #0x78
   0737 78                 1902 	.db #0x78
   0738 04                 1903 	.db #0x04
   0739 04                 1904 	.db #0x04
   073A 04                 1905 	.db #0x04
   073B 04                 1906 	.db #0x04
   073C F8                 1907 	.db #0xF8
   073D F8                 1908 	.db #0xF8
   073E 00                 1909 	.db #0x00
   073F 00                 1910 	.db #0x00
   0740 F8                 1911 	.db #0xF8
   0741 F8                 1912 	.db #0xF8
   0742 20                 1913 	.db #0x20
   0743 20                 1914 	.db #0x20
   0744 20                 1915 	.db #0x20
   0745 20                 1916 	.db #0x20
   0746 20                 1917 	.db #0x20
   0747 20                 1918 	.db #0x20
   0748 20                 1919 	.db #0x20
   0749 20                 1920 	.db #0x20
   074A 20                 1921 	.db #0x20
   074B 20                 1922 	.db #0x20
   074C 20                 1923 	.db #0x20
   074D 20                 1924 	.db #0x20
   074E 00                 1925 	.db #0x00
   074F 00                 1926 	.db #0x00
   0750 84                 1927 	.db #0x84
   0751 84                 1928 	.db #0x84
   0752 84                 1929 	.db #0x84
   0753 84                 1930 	.db #0x84
   0754 84                 1931 	.db #0x84
   0755 84                 1932 	.db #0x84
   0756 84                 1933 	.db #0x84
   0757 84                 1934 	.db #0x84
   0758 84                 1935 	.db #0x84
   0759 84                 1936 	.db #0x84
   075A 84                 1937 	.db #0x84
   075B 84                 1938 	.db #0x84
   075C 78                 1939 	.db #0x78
   075D 78                 1940 	.db #0x78
   075E 00                 1941 	.db #0x00
   075F 00                 1942 	.db #0x00
   0760 88                 1943 	.db #0x88
   0761 88                 1944 	.db #0x88
   0762 88                 1945 	.db #0x88
   0763 88                 1946 	.db #0x88
   0764 88                 1947 	.db #0x88
   0765 88                 1948 	.db #0x88
   0766 88                 1949 	.db #0x88
   0767 88                 1950 	.db #0x88
   0768 50                 1951 	.db #0x50
   0769 50                 1952 	.db #0x50
   076A 50                 1953 	.db #0x50
   076B 50                 1954 	.db #0x50
   076C 20                 1955 	.db #0x20
   076D 20                 1956 	.db #0x20
   076E 00                 1957 	.db #0x00
   076F 00                 1958 	.db #0x00
   0770 92                 1959 	.db #0x92
   0771 92                 1960 	.db #0x92
   0772 92                 1961 	.db #0x92
   0773 92                 1962 	.db #0x92
   0774 92                 1963 	.db #0x92
   0775 92                 1964 	.db #0x92
   0776 92                 1965 	.db #0x92
   0777 92                 1966 	.db #0x92
   0778 92                 1967 	.db #0x92
   0779 92                 1968 	.db #0x92
   077A 6C                 1969 	.db #0x6C
   077B 6C                 1970 	.db #0x6C
   077C 00                 1971 	.db #0x00
   077D 00                 1972 	.db #0x00
   077E 00                 1973 	.db #0x00
   077F 00                 1974 	.db #0x00
   0780 88                 1975 	.db #0x88
   0781 88                 1976 	.db #0x88
   0782 88                 1977 	.db #0x88
   0783 88                 1978 	.db #0x88
   0784 50                 1979 	.db #0x50
   0785 50                 1980 	.db #0x50
   0786 20                 1981 	.db #0x20
   0787 20                 1982 	.db #0x20
   0788 20                 1983 	.db #0x20
   0789 20                 1984 	.db #0x20
   078A 50                 1985 	.db #0x50
   078B 50                 1986 	.db #0x50
   078C 88                 1987 	.db #0x88
   078D 88                 1988 	.db #0x88
   078E 00                 1989 	.db #0x00
   078F 00                 1990 	.db #0x00
   0790 88                 1991 	.db #0x88
   0791 88                 1992 	.db #0x88
   0792 88                 1993 	.db #0x88
   0793 88                 1994 	.db #0x88
   0794 50                 1995 	.db #0x50
   0795 50                 1996 	.db #0x50
   0796 20                 1997 	.db #0x20
   0797 20                 1998 	.db #0x20
   0798 20                 1999 	.db #0x20
   0799 20                 2000 	.db #0x20
   079A 20                 2001 	.db #0x20
   079B 20                 2002 	.db #0x20
   079C 20                 2003 	.db #0x20
   079D 20                 2004 	.db #0x20
   079E 00                 2005 	.db #0x00
   079F 00                 2006 	.db #0x00
   07A0 FC                 2007 	.db #0xFC
   07A1 FC                 2008 	.db #0xFC
   07A2 04                 2009 	.db #0x04
   07A3 04                 2010 	.db #0x04
   07A4 08                 2011 	.db #0x08
   07A5 08                 2012 	.db #0x08
   07A6 30                 2013 	.db #0x30
   07A7 30                 2014 	.db #0x30
   07A8 40                 2015 	.db #0x40
   07A9 40                 2016 	.db #0x40
   07AA 80                 2017 	.db #0x80
   07AB 80                 2018 	.db #0x80
   07AC FC                 2019 	.db #0xFC
   07AD FC                 2020 	.db #0xFC
   07AE 00                 2021 	.db #0x00
   07AF 00                 2022 	.db #0x00
   07B0 00                 2023 	.db #0x00
   07B1 04                 2024 	.db #0x04
   07B2 08                 2025 	.db #0x08
   07B3 7E                 2026 	.db #0x7E
   07B4 FC                 2027 	.db #0xFC
   07B5 FF                 2028 	.db #0xFF
   07B6 FE                 2029 	.db #0xFE
   07B7 FE                 2030 	.db #0xFE
   07B8 FC                 2031 	.db #0xFC
   07B9 FC                 2032 	.db #0xFC
   07BA 08                 2033 	.db #0x08
   07BB 08                 2034 	.db #0x08
   07BC 00                 2035 	.db #0x00
   07BD 00                 2036 	.db #0x00
   07BE 00                 2037 	.db #0x00
   07BF 00                 2038 	.db #0x00
   07C0 00                 2039 	.db #0x00
   07C1 7E                 2040 	.db #0x7E
   07C2 7E                 2041 	.db #0x7E
   07C3 B9                 2042 	.db #0xB9
   07C4 7E                 2043 	.db #0x7E
   07C5 A5                 2044 	.db #0xA5
   07C6 7E                 2045 	.db #0x7E
   07C7 B9                 2046 	.db #0xB9
   07C8 7E                 2047 	.db #0x7E
   07C9 A5                 2048 	.db #0xA5
   07CA 7E                 2049 	.db #0x7E
   07CB A5                 2050 	.db #0xA5
   07CC 7E                 2051 	.db #0x7E
   07CD B9                 2052 	.db #0xB9
   07CE 00                 2053 	.db #0x00
   07CF 7E                 2054 	.db #0x7E
   07D0 00                 2055 	.db #0x00
   07D1 00                 2056 	.db #0x00
   07D2 00                 2057 	.db #0x00
   07D3 00                 2058 	.db #0x00
   07D4 00                 2059 	.db #0x00
   07D5 00                 2060 	.db #0x00
   07D6 00                 2061 	.db #0x00
   07D7 00                 2062 	.db #0x00
   07D8 00                 2063 	.db #0x00
   07D9 00                 2064 	.db #0x00
   07DA 00                 2065 	.db #0x00
   07DB 00                 2066 	.db #0x00
   07DC 00                 2067 	.db #0x00
   07DD 00                 2068 	.db #0x00
   07DE 00                 2069 	.db #0x00
   07DF 00                 2070 	.db #0x00
   07E0 00                 2071 	.db #0x00
   07E1 00                 2072 	.db #0x00
   07E2 00                 2073 	.db #0x00
   07E3 00                 2074 	.db #0x00
   07E4 00                 2075 	.db #0x00
   07E5 00                 2076 	.db #0x00
   07E6 00                 2077 	.db #0x00
   07E7 00                 2078 	.db #0x00
   07E8 00                 2079 	.db #0x00
   07E9 00                 2080 	.db #0x00
   07EA 00                 2081 	.db #0x00
   07EB 00                 2082 	.db #0x00
   07EC 00                 2083 	.db #0x00
   07ED 00                 2084 	.db #0x00
   07EE 00                 2085 	.db #0x00
   07EF 00                 2086 	.db #0x00
   07F0 00                 2087 	.db #0x00
   07F1 00                 2088 	.db #0x00
   07F2 00                 2089 	.db #0x00
   07F3 00                 2090 	.db #0x00
   07F4 00                 2091 	.db #0x00
   07F5 00                 2092 	.db #0x00
   07F6 00                 2093 	.db #0x00
   07F7 00                 2094 	.db #0x00
   07F8 00                 2095 	.db #0x00
   07F9 00                 2096 	.db #0x00
   07FA 00                 2097 	.db #0x00
   07FB 00                 2098 	.db #0x00
   07FC 00                 2099 	.db #0x00
   07FD 00                 2100 	.db #0x00
   07FE 00                 2101 	.db #0x00
   07FF 00                 2102 	.db #0x00
ASxxxx Assembler V01.75  (GameBoy Z80-like CPU), page 1.

Symbol Table

  0 _tiles                             0000 GR

ASxxxx Assembler V01.75  (GameBoy Z80-like CPU), page 2.

Area Table

   0 _CODE                              size  800   flags 0
   1 _DATA                              size    0   flags 0
   2 _OVERLAY                           size    0   flags 0
   3 _ISEG                              size    0   flags 0
   4 _BSEG                              size    0   flags 0
   5 _XSEG                              size    0   flags 0
   6 _GSINIT                            size    0   flags 0
   7 _GSFINAL                           size    0   flags 0
   8 _HOME                              size    0   flags 0
